INJECTION SCHEME : 2nominals_10pilots_RomanPot_Alignment

idx,inj Nbr,	Ring,RF Bucket,Bu Spac (ns),bu per PS batch,SPS Batch spac,PSbatch nbr
1,	1,	ring_1,	1,		0,		1,		0,	1
2,	1,	ring_2,	1,		0,		1,		0,	1
3,	2,	ring_2,	2001,		0,		1,		0,	1
4,	2,	ring_1,	3001,		0,		1,		0,	1
5,	3,	ring_2,	4001,		0,		1,		0,	1
6,	3,	ring_1,	6001,		0,		1,		0,	1
7,	4,	ring_2,	6201,		0,		1,		0,	1
8,	4,	ring_1,	7941,		0,		1,		0,	1
9,	5,	ring_2,	8911,		0,		1,		0,	1
10,	6,	ring_2,	11111,		0,		1,		0,	1
11,	5,	ring_1,	11941,		0,		1,		0,	1
12,	7,	ring_2,	13111,		0,		1,		0,	1
13,	6,	ring_1,	14941,		0,		1,		0,	1
14,	8,	ring_2,	15111,		0,		1,		0,	1
15,	7,	ring_1,	17851,		0,		1,		0,	1
16,	9,	ring_2,	19851,		0,		1,		0,	1
17,	8,	ring_1,	20851,		0,		1,		0,	1
18,	10,	ring_2,	21051,		0,		1,		0,	1
19,	9,	ring_1,	22001,		0,		1,		0,	1
20,	11,	ring_2,	22051,		0,		1,		0,	1
21,	10,	ring_1,	23501,		0,		1,		0,	1
22,	11,	ring_1,	24501,		0,		1,		0,	1
23,	12,	ring_2,	30701,		0,		1,		0,	1
24,	12,	ring_1,	31181,		0,		1,		0,	1
Bu Spac : space in ns between bunches in the same PS train
SPS Batch Spac : space in ns between 2 first bunches of consecutive PS trains in the SPS

Tot number of B1 bunches(probe/Nominal) : 1/11
Tot number of B2 bunches(probe/Nominal) : 1/11

Tot number of B1 injections : 12
Tot number of B2 injections : 12

Collisions at IP1&5: 1
B1-empty at IP1&5: 11
B2-empty at IP1&5: 11
Empty-empty at IP1&5: 3541

Collisions at IP2: 1
B1-empty at IP2: 11
B2-empty at IP2: 11
Empty-empty at IP2: 3541

Collisions at IP8: 1
B1-empty at IP8: 11
B2-empty at IP8: 11
Empty-empty at IP8: 3541

LONG RANGE COLL IN IRIP1
RFbucketbeam1,RFbucketbeam2,z-pos/m
1,1,0
22001,22051,18.72
14941,15111,63.64

LONG RANGE COLL IN IRIP2
RFbucketbeam1,RFbucketbeam2,z-pos/m
1,8911,0

LONG RANGE COLL IN IRIP5
RFbucketbeam1,RFbucketbeam2,z-pos/m
1,1,0
22001,22051,18.72
14941,15111,63.64

LONG RANGE COLL IN IRIP8
RFbucketbeam1,RFbucketbeam2,z-pos/m
17851,8911,0
22001,13111,18.72


LONG RANGE FOR BEAM 1
RFbucket,Slot,Head-On IP1,Head-On IP2,Head-On IP5,Head-On IP8,Head-On Tot,LR IP1,LR IP2,LR IP5,LR IP8,LR Tot
1,0,1,1,1,0,3,0,0,0,0,0
3001,300,0,0,0,0,0,0,0,0,0,0
6001,600,0,0,0,0,0,0,0,0,0,0
7941,794,0,0,0,0,0,0,0,0,0,0
11941,1194,0,0,0,0,0,0,0,0,0,0
14941,1494,0,0,0,0,0,1,0,1,0,2
17851,1785,0,0,0,1,1,0,0,0,0,0
20851,2085,0,0,0,0,0,0,0,0,0,0
22001,2200,0,0,0,0,0,1,0,1,1,3
23501,2350,0,0,0,0,0,0,0,0,0,0
24501,2450,0,0,0,0,0,0,0,0,0,0
31181,3118,0,0,0,0,0,0,0,0,0,0

LONG RANGE FOR BEAM 2
RFbucket,Slot,Head-On IP1,Head-On IP2,Head-On IP5,Head-On IP8,Head-On Tot,LR IP1,LR IP2,LR IP5,LR IP8,LR Tot
1,0,1,0,1,0,2,0,0,0,0,0
2001,200,0,0,0,0,0,0,0,0,0,0
4001,400,0,0,0,0,0,0,0,0,0,0
6201,620,0,0,0,0,0,0,0,0,0,0
8911,891,0,1,0,1,2,0,0,0,0,0
11111,1111,0,0,0,0,0,0,0,0,0,0
13111,1311,0,0,0,0,0,0,0,0,1,1
15111,1511,0,0,0,0,0,1,0,1,0,2
19851,1985,0,0,0,0,0,0,0,0,0,0
21051,2105,0,0,0,0,0,0,0,0,0,0
22051,2205,0,0,0,0,0,1,0,1,0,2
30701,3070,0,0,0,0,0,0,0,0,0,0

HEAD ON COLLISIONS FOR B1
B1 bucket number,IP1,IP2,IP5,IP8
1,1,8911,1,-
3001,-,-,-,-
6001,-,-,-,-
7941,-,-,-,-
11941,-,-,-,-
14941,-,-,-,-
17851,-,-,-,8911
20851,-,-,-,-
22001,-,-,-,-
23501,-,-,-,-
24501,-,-,-,-
31181,-,-,-,-

HEAD ON COLLISIONS FOR B2
B2 bucket number,IP1,IP2,IP5,IP8
1,1,-,1,-
2001,-,-,-,-
4001,-,-,-,-
6201,-,-,-,-
8911,-,1,-,17851
11111,-,-,-,-
13111,-,-,-,-
15111,-,-,-,-
19851,-,-,-,-
21051,-,-,-,-
22051,-,-,-,-
30701,-,-,-,-
