INJECTION SCHEME : 25ns_85b_73_46_49_12bpi_8inj

idx,inj Nbr,	Ring,RF Bucket,Bu Spac (ns),bu per PS batch,SPS Batch spac,PSbatch nbr
1,	1,	ring_1,	1,		0,		1,		0,	1
2,	1,	ring_2,	1,		0,		1,		0,	1
3,	2,	ring_1,	3351,		25,		12,		0,	1
4,	2,	ring_2,	3661,		25,		12,		0,	1
5,	3,	ring_1,	4151,		25,		12,		0,	1
6,	3,	ring_2,	4151,		25,		12,		0,	1
7,	4,	ring_1,	8911,		25,		12,		0,	1
8,	4,	ring_2,	8911,		25,		12,		0,	1
9,	5,	ring_1,	13091,		25,		12,		0,	1
10,	5,	ring_2,	13091,		25,		12,		0,	1
11,	6,	ring_1,	17851,		25,		12,		0,	1
12,	6,	ring_2,	17851,		25,		12,		0,	1
13,	7,	ring_1,	21941,		25,		12,		0,	1
14,	7,	ring_2,	21941,		25,		12,		0,	1
15,	8,	ring_1,	30851,		25,		12,		0,	1
16,	8,	ring_2,	30851,		25,		12,		0,	1
Bu Spac : space in ns between bunches in the same PS train
SPS Batch Spac : space in ns between 2 first bunches of consecutive PS trains in the SPS

Tot number of B1 bunches(probe/Nominal) : 0/85
Tot number of B2 bunches(probe/Nominal) : 0/85

Tot number of B1 injections : 8
Tot number of B2 injections : 8

Collisions at IP1&5: 73
B1-empty at IP1&5: 12
B2-empty at IP1&5: 12
Empty-empty at IP1&5: 3467

Collisions at IP2: 46
B1-empty at IP2: 39
B2-empty at IP2: 39
Empty-empty at IP2: 3440

Collisions at IP8: 49
B1-empty at IP8: 36
B2-empty at IP8: 36
Empty-empty at IP8: 3443

LONG RANGE COLL IN IR1
RFbucketbeam1,RFbucketbeam2,z-pos/m
4261,4151,-41.18
9021,8911,-41.18
13201,13091,-41.18
17961,17851,-41.18
22051,21941,-41.18
30961,30851,-41.18
4251,4151,-37.43
4261,4161,-37.43
9011,8911,-37.43
9021,8921,-37.43
13191,13091,-37.43
13201,13101,-37.43
17951,17851,-37.43
17961,17861,-37.43
22041,21941,-37.43
22051,21951,-37.43
30951,30851,-37.43
30961,30861,-37.43
4241,4151,-33.69
4251,4161,-33.69
4261,4171,-33.69
9001,8911,-33.69
9011,8921,-33.69
9021,8931,-33.69
13181,13091,-33.69
13191,13101,-33.69
13201,13111,-33.69
17941,17851,-33.69
17951,17861,-33.69
17961,17871,-33.69
22031,21941,-33.69
22041,21951,-33.69
22051,21961,-33.69
30941,30851,-33.69
30951,30861,-33.69
30961,30871,-33.69
4231,4151,-29.95
4241,4161,-29.95
4251,4171,-29.95
4261,4181,-29.95
8991,8911,-29.95
9001,8921,-29.95
9011,8931,-29.95
9021,8941,-29.95
13171,13091,-29.95
13181,13101,-29.95
13191,13111,-29.95
13201,13121,-29.95
17931,17851,-29.95
17941,17861,-29.95
17951,17871,-29.95
17961,17881,-29.95
22021,21941,-29.95
22031,21951,-29.95
22041,21961,-29.95
22051,21971,-29.95
30931,30851,-29.95
30941,30861,-29.95
30951,30871,-29.95
30961,30881,-29.95
4221,4151,-26.2
4231,4161,-26.2
4241,4171,-26.2
4251,4181,-26.2
4261,4191,-26.2
8981,8911,-26.2
8991,8921,-26.2
9001,8931,-26.2
9011,8941,-26.2
9021,8951,-26.2
13161,13091,-26.2
13171,13101,-26.2
13181,13111,-26.2
13191,13121,-26.2
13201,13131,-26.2
17921,17851,-26.2
17931,17861,-26.2
17941,17871,-26.2
17951,17881,-26.2
17961,17891,-26.2
22011,21941,-26.2
22021,21951,-26.2
22031,21961,-26.2
22041,21971,-26.2
22051,21981,-26.2
30921,30851,-26.2
30931,30861,-26.2
30941,30871,-26.2
30951,30881,-26.2
30961,30891,-26.2
4211,4151,-22.46
4221,4161,-22.46
4231,4171,-22.46
4241,4181,-22.46
4251,4191,-22.46
4261,4201,-22.46
8971,8911,-22.46
8981,8921,-22.46
8991,8931,-22.46
9001,8941,-22.46
9011,8951,-22.46
9021,8961,-22.46
13151,13091,-22.46
13161,13101,-22.46
13171,13111,-22.46
13181,13121,-22.46
13191,13131,-22.46
13201,13141,-22.46
17911,17851,-22.46
17921,17861,-22.46
17931,17871,-22.46
17941,17881,-22.46
17951,17891,-22.46
17961,17901,-22.46
22001,21941,-22.46
22011,21951,-22.46
22021,21961,-22.46
22031,21971,-22.46
22041,21981,-22.46
22051,21991,-22.46
30911,30851,-22.46
30921,30861,-22.46
30931,30871,-22.46
30941,30881,-22.46
30951,30891,-22.46
30961,30901,-22.46
4201,4151,-18.72
4211,4161,-18.72
4221,4171,-18.72
4231,4181,-18.72
4241,4191,-18.72
4251,4201,-18.72
4261,4211,-18.72
8961,8911,-18.72
8971,8921,-18.72
8981,8931,-18.72
8991,8941,-18.72
9001,8951,-18.72
9011,8961,-18.72
9021,8971,-18.72
13141,13091,-18.72
13151,13101,-18.72
13161,13111,-18.72
13171,13121,-18.72
13181,13131,-18.72
13191,13141,-18.72
13201,13151,-18.72
17901,17851,-18.72
17911,17861,-18.72
17921,17871,-18.72
17931,17881,-18.72
17941,17891,-18.72
17951,17901,-18.72
17961,17911,-18.72
21991,21941,-18.72
22001,21951,-18.72
22011,21961,-18.72
22021,21971,-18.72
22031,21981,-18.72
22041,21991,-18.72
22051,22001,-18.72
30901,30851,-18.72
30911,30861,-18.72
30921,30871,-18.72
30931,30881,-18.72
30941,30891,-18.72
30951,30901,-18.72
30961,30911,-18.72
4191,4151,-14.97
4201,4161,-14.97
4211,4171,-14.97
4221,4181,-14.97
4231,4191,-14.97
4241,4201,-14.97
4251,4211,-14.97
4261,4221,-14.97
8951,8911,-14.97
8961,8921,-14.97
8971,8931,-14.97
8981,8941,-14.97
8991,8951,-14.97
9001,8961,-14.97
9011,8971,-14.97
9021,8981,-14.97
13131,13091,-14.97
13141,13101,-14.97
13151,13111,-14.97
13161,13121,-14.97
13171,13131,-14.97
13181,13141,-14.97
13191,13151,-14.97
13201,13161,-14.97
17891,17851,-14.97
17901,17861,-14.97
17911,17871,-14.97
17921,17881,-14.97
17931,17891,-14.97
17941,17901,-14.97
17951,17911,-14.97
17961,17921,-14.97
21981,21941,-14.97
21991,21951,-14.97
22001,21961,-14.97
22011,21971,-14.97
22021,21981,-14.97
22031,21991,-14.97
22041,22001,-14.97
22051,22011,-14.97
30891,30851,-14.97
30901,30861,-14.97
30911,30871,-14.97
30921,30881,-14.97
30931,30891,-14.97
30941,30901,-14.97
30951,30911,-14.97
30961,30921,-14.97
4181,4151,-11.23
4191,4161,-11.23
4201,4171,-11.23
4211,4181,-11.23
4221,4191,-11.23
4231,4201,-11.23
4241,4211,-11.23
4251,4221,-11.23
4261,4231,-11.23
8941,8911,-11.23
8951,8921,-11.23
8961,8931,-11.23
8971,8941,-11.23
8981,8951,-11.23
8991,8961,-11.23
9001,8971,-11.23
9011,8981,-11.23
9021,8991,-11.23
13121,13091,-11.23
13131,13101,-11.23
13141,13111,-11.23
13151,13121,-11.23
13161,13131,-11.23
13171,13141,-11.23
13181,13151,-11.23
13191,13161,-11.23
13201,13171,-11.23
17881,17851,-11.23
17891,17861,-11.23
17901,17871,-11.23
17911,17881,-11.23
17921,17891,-11.23
17931,17901,-11.23
17941,17911,-11.23
17951,17921,-11.23
17961,17931,-11.23
21971,21941,-11.23
21981,21951,-11.23
21991,21961,-11.23
22001,21971,-11.23
22011,21981,-11.23
22021,21991,-11.23
22031,22001,-11.23
22041,22011,-11.23
22051,22021,-11.23
30881,30851,-11.23
30891,30861,-11.23
30901,30871,-11.23
30911,30881,-11.23
30921,30891,-11.23
30931,30901,-11.23
30941,30911,-11.23
30951,30921,-11.23
30961,30931,-11.23
4171,4151,-7.49
4181,4161,-7.49
4191,4171,-7.49
4201,4181,-7.49
4211,4191,-7.49
4221,4201,-7.49
4231,4211,-7.49
4241,4221,-7.49
4251,4231,-7.49
4261,4241,-7.49
8931,8911,-7.49
8941,8921,-7.49
8951,8931,-7.49
8961,8941,-7.49
8971,8951,-7.49
8981,8961,-7.49
8991,8971,-7.49
9001,8981,-7.49
9011,8991,-7.49
9021,9001,-7.49
13111,13091,-7.49
13121,13101,-7.49
13131,13111,-7.49
13141,13121,-7.49
13151,13131,-7.49
13161,13141,-7.49
13171,13151,-7.49
13181,13161,-7.49
13191,13171,-7.49
13201,13181,-7.49
17871,17851,-7.49
17881,17861,-7.49
17891,17871,-7.49
17901,17881,-7.49
17911,17891,-7.49
17921,17901,-7.49
17931,17911,-7.49
17941,17921,-7.49
17951,17931,-7.49
17961,17941,-7.49
21961,21941,-7.49
21971,21951,-7.49
21981,21961,-7.49
21991,21971,-7.49
22001,21981,-7.49
22011,21991,-7.49
22021,22001,-7.49
22031,22011,-7.49
22041,22021,-7.49
22051,22031,-7.49
30871,30851,-7.49
30881,30861,-7.49
30891,30871,-7.49
30901,30881,-7.49
30911,30891,-7.49
30921,30901,-7.49
30931,30911,-7.49
30941,30921,-7.49
30951,30931,-7.49
30961,30941,-7.49
4161,4151,-3.74
4171,4161,-3.74
4181,4171,-3.74
4191,4181,-3.74
4201,4191,-3.74
4211,4201,-3.74
4221,4211,-3.74
4231,4221,-3.74
4241,4231,-3.74
4251,4241,-3.74
4261,4251,-3.74
8921,8911,-3.74
8931,8921,-3.74
8941,8931,-3.74
8951,8941,-3.74
8961,8951,-3.74
8971,8961,-3.74
8981,8971,-3.74
8991,8981,-3.74
9001,8991,-3.74
9011,9001,-3.74
9021,9011,-3.74
13101,13091,-3.74
13111,13101,-3.74
13121,13111,-3.74
13131,13121,-3.74
13141,13131,-3.74
13151,13141,-3.74
13161,13151,-3.74
13171,13161,-3.74
13181,13171,-3.74
13191,13181,-3.74
13201,13191,-3.74
17861,17851,-3.74
17871,17861,-3.74
17881,17871,-3.74
17891,17881,-3.74
17901,17891,-3.74
17911,17901,-3.74
17921,17911,-3.74
17931,17921,-3.74
17941,17931,-3.74
17951,17941,-3.74
17961,17951,-3.74
21951,21941,-3.74
21961,21951,-3.74
21971,21961,-3.74
21981,21971,-3.74
21991,21981,-3.74
22001,21991,-3.74
22011,22001,-3.74
22021,22011,-3.74
22031,22021,-3.74
22041,22031,-3.74
22051,22041,-3.74
30861,30851,-3.74
30871,30861,-3.74
30881,30871,-3.74
30891,30881,-3.74
30901,30891,-3.74
30911,30901,-3.74
30921,30911,-3.74
30931,30921,-3.74
30941,30931,-3.74
30951,30941,-3.74
30961,30951,-3.74
1,1,0
4151,4151,0
4161,4161,0
4171,4171,0
4181,4181,0
4191,4191,0
4201,4201,0
4211,4211,0
4221,4221,0
4231,4231,0
4241,4241,0
4251,4251,0
4261,4261,0
8911,8911,0
8921,8921,0
8931,8931,0
8941,8941,0
8951,8951,0
8961,8961,0
8971,8971,0
8981,8981,0
8991,8991,0
9001,9001,0
9011,9011,0
9021,9021,0
13091,13091,0
13101,13101,0
13111,13111,0
13121,13121,0
13131,13131,0
13141,13141,0
13151,13151,0
13161,13161,0
13171,13171,0
13181,13181,0
13191,13191,0
13201,13201,0
17851,17851,0
17861,17861,0
17871,17871,0
17881,17881,0
17891,17891,0
17901,17901,0
17911,17911,0
17921,17921,0
17931,17931,0
17941,17941,0
17951,17951,0
17961,17961,0
21941,21941,0
21951,21951,0
21961,21961,0
21971,21971,0
21981,21981,0
21991,21991,0
22001,22001,0
22011,22011,0
22021,22021,0
22031,22031,0
22041,22041,0
22051,22051,0
30851,30851,0
30861,30861,0
30871,30871,0
30881,30881,0
30891,30891,0
30901,30901,0
30911,30911,0
30921,30921,0
30931,30931,0
30941,30941,0
30951,30951,0
30961,30961,0
4151,4161,3.74
4161,4171,3.74
4171,4181,3.74
4181,4191,3.74
4191,4201,3.74
4201,4211,3.74
4211,4221,3.74
4221,4231,3.74
4231,4241,3.74
4241,4251,3.74
4251,4261,3.74
8911,8921,3.74
8921,8931,3.74
8931,8941,3.74
8941,8951,3.74
8951,8961,3.74
8961,8971,3.74
8971,8981,3.74
8981,8991,3.74
8991,9001,3.74
9001,9011,3.74
9011,9021,3.74
13091,13101,3.74
13101,13111,3.74
13111,13121,3.74
13121,13131,3.74
13131,13141,3.74
13141,13151,3.74
13151,13161,3.74
13161,13171,3.74
13171,13181,3.74
13181,13191,3.74
13191,13201,3.74
17851,17861,3.74
17861,17871,3.74
17871,17881,3.74
17881,17891,3.74
17891,17901,3.74
17901,17911,3.74
17911,17921,3.74
17921,17931,3.74
17931,17941,3.74
17941,17951,3.74
17951,17961,3.74
21941,21951,3.74
21951,21961,3.74
21961,21971,3.74
21971,21981,3.74
21981,21991,3.74
21991,22001,3.74
22001,22011,3.74
22011,22021,3.74
22021,22031,3.74
22031,22041,3.74
22041,22051,3.74
30851,30861,3.74
30861,30871,3.74
30871,30881,3.74
30881,30891,3.74
30891,30901,3.74
30901,30911,3.74
30911,30921,3.74
30921,30931,3.74
30931,30941,3.74
30941,30951,3.74
30951,30961,3.74
4151,4171,7.49
4161,4181,7.49
4171,4191,7.49
4181,4201,7.49
4191,4211,7.49
4201,4221,7.49
4211,4231,7.49
4221,4241,7.49
4231,4251,7.49
4241,4261,7.49
8911,8931,7.49
8921,8941,7.49
8931,8951,7.49
8941,8961,7.49
8951,8971,7.49
8961,8981,7.49
8971,8991,7.49
8981,9001,7.49
8991,9011,7.49
9001,9021,7.49
13091,13111,7.49
13101,13121,7.49
13111,13131,7.49
13121,13141,7.49
13131,13151,7.49
13141,13161,7.49
13151,13171,7.49
13161,13181,7.49
13171,13191,7.49
13181,13201,7.49
17851,17871,7.49
17861,17881,7.49
17871,17891,7.49
17881,17901,7.49
17891,17911,7.49
17901,17921,7.49
17911,17931,7.49
17921,17941,7.49
17931,17951,7.49
17941,17961,7.49
21941,21961,7.49
21951,21971,7.49
21961,21981,7.49
21971,21991,7.49
21981,22001,7.49
21991,22011,7.49
22001,22021,7.49
22011,22031,7.49
22021,22041,7.49
22031,22051,7.49
30851,30871,7.49
30861,30881,7.49
30871,30891,7.49
30881,30901,7.49
30891,30911,7.49
30901,30921,7.49
30911,30931,7.49
30921,30941,7.49
30931,30951,7.49
30941,30961,7.49
4151,4181,11.23
4161,4191,11.23
4171,4201,11.23
4181,4211,11.23
4191,4221,11.23
4201,4231,11.23
4211,4241,11.23
4221,4251,11.23
4231,4261,11.23
8911,8941,11.23
8921,8951,11.23
8931,8961,11.23
8941,8971,11.23
8951,8981,11.23
8961,8991,11.23
8971,9001,11.23
8981,9011,11.23
8991,9021,11.23
13091,13121,11.23
13101,13131,11.23
13111,13141,11.23
13121,13151,11.23
13131,13161,11.23
13141,13171,11.23
13151,13181,11.23
13161,13191,11.23
13171,13201,11.23
17851,17881,11.23
17861,17891,11.23
17871,17901,11.23
17881,17911,11.23
17891,17921,11.23
17901,17931,11.23
17911,17941,11.23
17921,17951,11.23
17931,17961,11.23
21941,21971,11.23
21951,21981,11.23
21961,21991,11.23
21971,22001,11.23
21981,22011,11.23
21991,22021,11.23
22001,22031,11.23
22011,22041,11.23
22021,22051,11.23
30851,30881,11.23
30861,30891,11.23
30871,30901,11.23
30881,30911,11.23
30891,30921,11.23
30901,30931,11.23
30911,30941,11.23
30921,30951,11.23
30931,30961,11.23
4151,4191,14.97
4161,4201,14.97
4171,4211,14.97
4181,4221,14.97
4191,4231,14.97
4201,4241,14.97
4211,4251,14.97
4221,4261,14.97
8911,8951,14.97
8921,8961,14.97
8931,8971,14.97
8941,8981,14.97
8951,8991,14.97
8961,9001,14.97
8971,9011,14.97
8981,9021,14.97
13091,13131,14.97
13101,13141,14.97
13111,13151,14.97
13121,13161,14.97
13131,13171,14.97
13141,13181,14.97
13151,13191,14.97
13161,13201,14.97
17851,17891,14.97
17861,17901,14.97
17871,17911,14.97
17881,17921,14.97
17891,17931,14.97
17901,17941,14.97
17911,17951,14.97
17921,17961,14.97
21941,21981,14.97
21951,21991,14.97
21961,22001,14.97
21971,22011,14.97
21981,22021,14.97
21991,22031,14.97
22001,22041,14.97
22011,22051,14.97
30851,30891,14.97
30861,30901,14.97
30871,30911,14.97
30881,30921,14.97
30891,30931,14.97
30901,30941,14.97
30911,30951,14.97
30921,30961,14.97
4151,4201,18.72
4161,4211,18.72
4171,4221,18.72
4181,4231,18.72
4191,4241,18.72
4201,4251,18.72
4211,4261,18.72
8911,8961,18.72
8921,8971,18.72
8931,8981,18.72
8941,8991,18.72
8951,9001,18.72
8961,9011,18.72
8971,9021,18.72
13091,13141,18.72
13101,13151,18.72
13111,13161,18.72
13121,13171,18.72
13131,13181,18.72
13141,13191,18.72
13151,13201,18.72
17851,17901,18.72
17861,17911,18.72
17871,17921,18.72
17881,17931,18.72
17891,17941,18.72
17901,17951,18.72
17911,17961,18.72
21941,21991,18.72
21951,22001,18.72
21961,22011,18.72
21971,22021,18.72
21981,22031,18.72
21991,22041,18.72
22001,22051,18.72
30851,30901,18.72
30861,30911,18.72
30871,30921,18.72
30881,30931,18.72
30891,30941,18.72
30901,30951,18.72
30911,30961,18.72
4151,4211,22.46
4161,4221,22.46
4171,4231,22.46
4181,4241,22.46
4191,4251,22.46
4201,4261,22.46
8911,8971,22.46
8921,8981,22.46
8931,8991,22.46
8941,9001,22.46
8951,9011,22.46
8961,9021,22.46
13091,13151,22.46
13101,13161,22.46
13111,13171,22.46
13121,13181,22.46
13131,13191,22.46
13141,13201,22.46
17851,17911,22.46
17861,17921,22.46
17871,17931,22.46
17881,17941,22.46
17891,17951,22.46
17901,17961,22.46
21941,22001,22.46
21951,22011,22.46
21961,22021,22.46
21971,22031,22.46
21981,22041,22.46
21991,22051,22.46
30851,30911,22.46
30861,30921,22.46
30871,30931,22.46
30881,30941,22.46
30891,30951,22.46
30901,30961,22.46
4151,4221,26.2
4161,4231,26.2
4171,4241,26.2
4181,4251,26.2
4191,4261,26.2
8911,8981,26.2
8921,8991,26.2
8931,9001,26.2
8941,9011,26.2
8951,9021,26.2
13091,13161,26.2
13101,13171,26.2
13111,13181,26.2
13121,13191,26.2
13131,13201,26.2
17851,17921,26.2
17861,17931,26.2
17871,17941,26.2
17881,17951,26.2
17891,17961,26.2
21941,22011,26.2
21951,22021,26.2
21961,22031,26.2
21971,22041,26.2
21981,22051,26.2
30851,30921,26.2
30861,30931,26.2
30871,30941,26.2
30881,30951,26.2
30891,30961,26.2
4151,4231,29.95
4161,4241,29.95
4171,4251,29.95
4181,4261,29.95
8911,8991,29.95
8921,9001,29.95
8931,9011,29.95
8941,9021,29.95
13091,13171,29.95
13101,13181,29.95
13111,13191,29.95
13121,13201,29.95
17851,17931,29.95
17861,17941,29.95
17871,17951,29.95
17881,17961,29.95
21941,22021,29.95
21951,22031,29.95
21961,22041,29.95
21971,22051,29.95
30851,30931,29.95
30861,30941,29.95
30871,30951,29.95
30881,30961,29.95
4151,4241,33.69
4161,4251,33.69
4171,4261,33.69
8911,9001,33.69
8921,9011,33.69
8931,9021,33.69
13091,13181,33.69
13101,13191,33.69
13111,13201,33.69
17851,17941,33.69
17861,17951,33.69
17871,17961,33.69
21941,22031,33.69
21951,22041,33.69
21961,22051,33.69
30851,30941,33.69
30861,30951,33.69
30871,30961,33.69
4151,4251,37.43
4161,4261,37.43
8911,9011,37.43
8921,9021,37.43
13091,13191,37.43
13101,13201,37.43
17851,17951,37.43
17861,17961,37.43
21941,22041,37.43
21951,22051,37.43
30851,30951,37.43
30861,30961,37.43
4151,4261,41.18
8911,9021,41.18
13091,13201,41.18
17851,17961,41.18
21941,22051,41.18
30851,30961,41.18

LONG RANGE COLL IN IR2
RFbucketbeam1,RFbucketbeam2,z-pos/m
13201,21941,-63.64
13191,21941,-59.89
13201,21951,-59.89
13181,21941,-56.15
13191,21951,-56.15
13201,21961,-56.15
13171,21941,-52.41
13181,21951,-52.41
13191,21961,-52.41
13201,21971,-52.41
13161,21941,-48.66
13171,21951,-48.66
13181,21961,-48.66
13191,21971,-48.66
13201,21981,-48.66
13151,21941,-44.92
13161,21951,-44.92
13171,21961,-44.92
13181,21971,-44.92
13191,21981,-44.92
13201,21991,-44.92
13141,21941,-41.18
13151,21951,-41.18
13161,21961,-41.18
13171,21971,-41.18
13181,21981,-41.18
13191,21991,-41.18
13201,22001,-41.18
22051,30851,-41.18
13131,21941,-37.43
13141,21951,-37.43
13151,21961,-37.43
13161,21971,-37.43
13171,21981,-37.43
13181,21991,-37.43
13191,22001,-37.43
13201,22011,-37.43
22041,30851,-37.43
22051,30861,-37.43
13121,21941,-33.69
13131,21951,-33.69
13141,21961,-33.69
13151,21971,-33.69
13161,21981,-33.69
13171,21991,-33.69
13181,22001,-33.69
13191,22011,-33.69
13201,22021,-33.69
22031,30851,-33.69
22041,30861,-33.69
22051,30871,-33.69
4261,13091,-29.95
9021,17851,-29.95
13111,21941,-29.95
13121,21951,-29.95
13131,21961,-29.95
13141,21971,-29.95
13151,21981,-29.95
13161,21991,-29.95
13171,22001,-29.95
13181,22011,-29.95
13191,22021,-29.95
13201,22031,-29.95
22021,30851,-29.95
22031,30861,-29.95
22041,30871,-29.95
22051,30881,-29.95
30961,4151,-29.95
4251,13091,-26.2
4261,13101,-26.2
9011,17851,-26.2
9021,17861,-26.2
13101,21941,-26.2
13111,21951,-26.2
13121,21961,-26.2
13131,21971,-26.2
13141,21981,-26.2
13151,21991,-26.2
13161,22001,-26.2
13171,22011,-26.2
13181,22021,-26.2
13191,22031,-26.2
13201,22041,-26.2
22011,30851,-26.2
22021,30861,-26.2
22031,30871,-26.2
22041,30881,-26.2
22051,30891,-26.2
30951,4151,-26.2
30961,4161,-26.2
4241,13091,-22.46
4251,13101,-22.46
4261,13111,-22.46
9001,17851,-22.46
9011,17861,-22.46
9021,17871,-22.46
13091,21941,-22.46
13101,21951,-22.46
13111,21961,-22.46
13121,21971,-22.46
13131,21981,-22.46
13141,21991,-22.46
13151,22001,-22.46
13161,22011,-22.46
13171,22021,-22.46
13181,22031,-22.46
13191,22041,-22.46
13201,22051,-22.46
22001,30851,-22.46
22011,30861,-22.46
22021,30871,-22.46
22031,30881,-22.46
22041,30891,-22.46
22051,30901,-22.46
30941,4151,-22.46
30951,4161,-22.46
30961,4171,-22.46
4231,13091,-18.72
4241,13101,-18.72
4251,13111,-18.72
4261,13121,-18.72
8991,17851,-18.72
9001,17861,-18.72
9011,17871,-18.72
9021,17881,-18.72
13091,21951,-18.72
13101,21961,-18.72
13111,21971,-18.72
13121,21981,-18.72
13131,21991,-18.72
13141,22001,-18.72
13151,22011,-18.72
13161,22021,-18.72
13171,22031,-18.72
13181,22041,-18.72
13191,22051,-18.72
21991,30851,-18.72
22001,30861,-18.72
22011,30871,-18.72
22021,30881,-18.72
22031,30891,-18.72
22041,30901,-18.72
22051,30911,-18.72
30931,4151,-18.72
30941,4161,-18.72
30951,4171,-18.72
30961,4181,-18.72
4221,13091,-14.97
4231,13101,-14.97
4241,13111,-14.97
4251,13121,-14.97
4261,13131,-14.97
8981,17851,-14.97
8991,17861,-14.97
9001,17871,-14.97
9011,17881,-14.97
9021,17891,-14.97
13091,21961,-14.97
13101,21971,-14.97
13111,21981,-14.97
13121,21991,-14.97
13131,22001,-14.97
13141,22011,-14.97
13151,22021,-14.97
13161,22031,-14.97
13171,22041,-14.97
13181,22051,-14.97
21981,30851,-14.97
21991,30861,-14.97
22001,30871,-14.97
22011,30881,-14.97
22021,30891,-14.97
22031,30901,-14.97
22041,30911,-14.97
22051,30921,-14.97
30921,4151,-14.97
30931,4161,-14.97
30941,4171,-14.97
30951,4181,-14.97
30961,4191,-14.97
4211,13091,-11.23
4221,13101,-11.23
4231,13111,-11.23
4241,13121,-11.23
4251,13131,-11.23
4261,13141,-11.23
8971,17851,-11.23
8981,17861,-11.23
8991,17871,-11.23
9001,17881,-11.23
9011,17891,-11.23
9021,17901,-11.23
13091,21971,-11.23
13101,21981,-11.23
13111,21991,-11.23
13121,22001,-11.23
13131,22011,-11.23
13141,22021,-11.23
13151,22031,-11.23
13161,22041,-11.23
13171,22051,-11.23
21971,30851,-11.23
21981,30861,-11.23
21991,30871,-11.23
22001,30881,-11.23
22011,30891,-11.23
22021,30901,-11.23
22031,30911,-11.23
22041,30921,-11.23
22051,30931,-11.23
30911,4151,-11.23
30921,4161,-11.23
30931,4171,-11.23
30941,4181,-11.23
30951,4191,-11.23
30961,4201,-11.23
4201,13091,-7.49
4211,13101,-7.49
4221,13111,-7.49
4231,13121,-7.49
4241,13131,-7.49
4251,13141,-7.49
4261,13151,-7.49
8961,17851,-7.49
8971,17861,-7.49
8981,17871,-7.49
8991,17881,-7.49
9001,17891,-7.49
9011,17901,-7.49
9021,17911,-7.49
13091,21981,-7.49
13101,21991,-7.49
13111,22001,-7.49
13121,22011,-7.49
13131,22021,-7.49
13141,22031,-7.49
13151,22041,-7.49
13161,22051,-7.49
21961,30851,-7.49
21971,30861,-7.49
21981,30871,-7.49
21991,30881,-7.49
22001,30891,-7.49
22011,30901,-7.49
22021,30911,-7.49
22031,30921,-7.49
22041,30931,-7.49
22051,30941,-7.49
30901,4151,-7.49
30911,4161,-7.49
30921,4171,-7.49
30931,4181,-7.49
30941,4191,-7.49
30951,4201,-7.49
30961,4211,-7.49
4191,13091,-3.74
4201,13101,-3.74
4211,13111,-3.74
4221,13121,-3.74
4231,13131,-3.74
4241,13141,-3.74
4251,13151,-3.74
4261,13161,-3.74
8951,17851,-3.74
8961,17861,-3.74
8971,17871,-3.74
8981,17881,-3.74
8991,17891,-3.74
9001,17901,-3.74
9011,17911,-3.74
9021,17921,-3.74
13091,21991,-3.74
13101,22001,-3.74
13111,22011,-3.74
13121,22021,-3.74
13131,22031,-3.74
13141,22041,-3.74
13151,22051,-3.74
21951,30851,-3.74
21961,30861,-3.74
21971,30871,-3.74
21981,30881,-3.74
21991,30891,-3.74
22001,30901,-3.74
22011,30911,-3.74
22021,30921,-3.74
22031,30931,-3.74
22041,30941,-3.74
22051,30951,-3.74
30891,4151,-3.74
30901,4161,-3.74
30911,4171,-3.74
30921,4181,-3.74
30931,4191,-3.74
30941,4201,-3.74
30951,4211,-3.74
30961,4221,-3.74
1,8911,0
4181,13091,0
4191,13101,0
4201,13111,0
4211,13121,0
4221,13131,0
4231,13141,0
4241,13151,0
4251,13161,0
4261,13171,0
8941,17851,0
8951,17861,0
8961,17871,0
8971,17881,0
8981,17891,0
8991,17901,0
9001,17911,0
9011,17921,0
9021,17931,0
13091,22001,0
13101,22011,0
13111,22021,0
13121,22031,0
13131,22041,0
13141,22051,0
21941,30851,0
21951,30861,0
21961,30871,0
21971,30881,0
21981,30891,0
21991,30901,0
22001,30911,0
22011,30921,0
22021,30931,0
22031,30941,0
22041,30951,0
22051,30961,0
30881,4151,0
30891,4161,0
30901,4171,0
30911,4181,0
30921,4191,0
30931,4201,0
30941,4211,0
30951,4221,0
30961,4231,0
1,8921,3.74
4171,13091,3.74
4181,13101,3.74
4191,13111,3.74
4201,13121,3.74
4211,13131,3.74
4221,13141,3.74
4231,13151,3.74
4241,13161,3.74
4251,13171,3.74
4261,13181,3.74
8931,17851,3.74
8941,17861,3.74
8951,17871,3.74
8961,17881,3.74
8971,17891,3.74
8981,17901,3.74
8991,17911,3.74
9001,17921,3.74
9011,17931,3.74
9021,17941,3.74
13091,22011,3.74
13101,22021,3.74
13111,22031,3.74
13121,22041,3.74
13131,22051,3.74
21941,30861,3.74
21951,30871,3.74
21961,30881,3.74
21971,30891,3.74
21981,30901,3.74
21991,30911,3.74
22001,30921,3.74
22011,30931,3.74
22021,30941,3.74
22031,30951,3.74
22041,30961,3.74
30871,4151,3.74
30881,4161,3.74
30891,4171,3.74
30901,4181,3.74
30911,4191,3.74
30921,4201,3.74
30931,4211,3.74
30941,4221,3.74
30951,4231,3.74
30961,4241,3.74
1,8931,7.49
4161,13091,7.49
4171,13101,7.49
4181,13111,7.49
4191,13121,7.49
4201,13131,7.49
4211,13141,7.49
4221,13151,7.49
4231,13161,7.49
4241,13171,7.49
4251,13181,7.49
4261,13191,7.49
8921,17851,7.49
8931,17861,7.49
8941,17871,7.49
8951,17881,7.49
8961,17891,7.49
8971,17901,7.49
8981,17911,7.49
8991,17921,7.49
9001,17931,7.49
9011,17941,7.49
9021,17951,7.49
13091,22021,7.49
13101,22031,7.49
13111,22041,7.49
13121,22051,7.49
21941,30871,7.49
21951,30881,7.49
21961,30891,7.49
21971,30901,7.49
21981,30911,7.49
21991,30921,7.49
22001,30931,7.49
22011,30941,7.49
22021,30951,7.49
22031,30961,7.49
30861,4151,7.49
30871,4161,7.49
30881,4171,7.49
30891,4181,7.49
30901,4191,7.49
30911,4201,7.49
30921,4211,7.49
30931,4221,7.49
30941,4231,7.49
30951,4241,7.49
30961,4251,7.49
1,8941,11.23
4151,13091,11.23
4161,13101,11.23
4171,13111,11.23
4181,13121,11.23
4191,13131,11.23
4201,13141,11.23
4211,13151,11.23
4221,13161,11.23
4231,13171,11.23
4241,13181,11.23
4251,13191,11.23
4261,13201,11.23
8911,17851,11.23
8921,17861,11.23
8931,17871,11.23
8941,17881,11.23
8951,17891,11.23
8961,17901,11.23
8971,17911,11.23
8981,17921,11.23
8991,17931,11.23
9001,17941,11.23
9011,17951,11.23
9021,17961,11.23
13091,22031,11.23
13101,22041,11.23
13111,22051,11.23
21941,30881,11.23
21951,30891,11.23
21961,30901,11.23
21971,30911,11.23
21981,30921,11.23
21991,30931,11.23
22001,30941,11.23
22011,30951,11.23
22021,30961,11.23
30851,4151,11.23
30861,4161,11.23
30871,4171,11.23
30881,4181,11.23
30891,4191,11.23
30901,4201,11.23
30911,4211,11.23
30921,4221,11.23
30931,4231,11.23
30941,4241,11.23
30951,4251,11.23
30961,4261,11.23
1,8951,14.97
4151,13101,14.97
4161,13111,14.97
4171,13121,14.97
4181,13131,14.97
4191,13141,14.97
4201,13151,14.97
4211,13161,14.97
4221,13171,14.97
4231,13181,14.97
4241,13191,14.97
4251,13201,14.97
8911,17861,14.97
8921,17871,14.97
8931,17881,14.97
8941,17891,14.97
8951,17901,14.97
8961,17911,14.97
8971,17921,14.97
8981,17931,14.97
8991,17941,14.97
9001,17951,14.97
9011,17961,14.97
13091,22041,14.97
13101,22051,14.97
21941,30891,14.97
21951,30901,14.97
21961,30911,14.97
21971,30921,14.97
21981,30931,14.97
21991,30941,14.97
22001,30951,14.97
22011,30961,14.97
30851,4161,14.97
30861,4171,14.97
30871,4181,14.97
30881,4191,14.97
30891,4201,14.97
30901,4211,14.97
30911,4221,14.97
30921,4231,14.97
30931,4241,14.97
30941,4251,14.97
30951,4261,14.97
1,8961,18.72
4151,13111,18.72
4161,13121,18.72
4171,13131,18.72
4181,13141,18.72
4191,13151,18.72
4201,13161,18.72
4211,13171,18.72
4221,13181,18.72
4231,13191,18.72
4241,13201,18.72
8911,17871,18.72
8921,17881,18.72
8931,17891,18.72
8941,17901,18.72
8951,17911,18.72
8961,17921,18.72
8971,17931,18.72
8981,17941,18.72
8991,17951,18.72
9001,17961,18.72
13091,22051,18.72
21941,30901,18.72
21951,30911,18.72
21961,30921,18.72
21971,30931,18.72
21981,30941,18.72
21991,30951,18.72
22001,30961,18.72
30851,4171,18.72
30861,4181,18.72
30871,4191,18.72
30881,4201,18.72
30891,4211,18.72
30901,4221,18.72
30911,4231,18.72
30921,4241,18.72
30931,4251,18.72
30941,4261,18.72
1,8971,22.46
4151,13121,22.46
4161,13131,22.46
4171,13141,22.46
4181,13151,22.46
4191,13161,22.46
4201,13171,22.46
4211,13181,22.46
4221,13191,22.46
4231,13201,22.46
8911,17881,22.46
8921,17891,22.46
8931,17901,22.46
8941,17911,22.46
8951,17921,22.46
8961,17931,22.46
8971,17941,22.46
8981,17951,22.46
8991,17961,22.46
21941,30911,22.46
21951,30921,22.46
21961,30931,22.46
21971,30941,22.46
21981,30951,22.46
21991,30961,22.46
30851,4181,22.46
30861,4191,22.46
30871,4201,22.46
30881,4211,22.46
30891,4221,22.46
30901,4231,22.46
30911,4241,22.46
30921,4251,22.46
30931,4261,22.46
1,8981,26.2
4151,13131,26.2
4161,13141,26.2
4171,13151,26.2
4181,13161,26.2
4191,13171,26.2
4201,13181,26.2
4211,13191,26.2
4221,13201,26.2
8911,17891,26.2
8921,17901,26.2
8931,17911,26.2
8941,17921,26.2
8951,17931,26.2
8961,17941,26.2
8971,17951,26.2
8981,17961,26.2
21941,30921,26.2
21951,30931,26.2
21961,30941,26.2
21971,30951,26.2
21981,30961,26.2
30851,4191,26.2
30861,4201,26.2
30871,4211,26.2
30881,4221,26.2
30891,4231,26.2
30901,4241,26.2
30911,4251,26.2
30921,4261,26.2
1,8991,29.95
4151,13141,29.95
4161,13151,29.95
4171,13161,29.95
4181,13171,29.95
4191,13181,29.95
4201,13191,29.95
4211,13201,29.95
8911,17901,29.95
8921,17911,29.95
8931,17921,29.95
8941,17931,29.95
8951,17941,29.95
8961,17951,29.95
8971,17961,29.95
21941,30931,29.95
21951,30941,29.95
21961,30951,29.95
21971,30961,29.95
30851,4201,29.95
30861,4211,29.95
30871,4221,29.95
30881,4231,29.95
30891,4241,29.95
30901,4251,29.95
30911,4261,29.95
1,9001,33.69
4151,13151,33.69
4161,13161,33.69
4171,13171,33.69
4181,13181,33.69
4191,13191,33.69
4201,13201,33.69
8911,17911,33.69
8921,17921,33.69
8931,17931,33.69
8941,17941,33.69
8951,17951,33.69
8961,17961,33.69
21941,30941,33.69
21951,30951,33.69
21961,30961,33.69
30851,4211,33.69
30861,4221,33.69
30871,4231,33.69
30881,4241,33.69
30891,4251,33.69
30901,4261,33.69
1,9011,37.43
4151,13161,37.43
4161,13171,37.43
4171,13181,37.43
4181,13191,37.43
4191,13201,37.43
8911,17921,37.43
8921,17931,37.43
8931,17941,37.43
8941,17951,37.43
8951,17961,37.43
21941,30951,37.43
21951,30961,37.43
30851,4221,37.43
30861,4231,37.43
30871,4241,37.43
30881,4251,37.43
30891,4261,37.43
1,9021,41.18
4151,13171,41.18
4161,13181,41.18
4171,13191,41.18
4181,13201,41.18
8911,17931,41.18
8921,17941,41.18
8931,17951,41.18
8941,17961,41.18
21941,30961,41.18
30851,4231,41.18
30861,4241,41.18
30871,4251,41.18
30881,4261,41.18
4151,13181,44.92
4161,13191,44.92
4171,13201,44.92
8911,17941,44.92
8921,17951,44.92
8931,17961,44.92
30851,4241,44.92
30861,4251,44.92
30871,4261,44.92
4151,13191,48.66
4161,13201,48.66
8911,17951,48.66
8921,17961,48.66
30851,4251,48.66
30861,4261,48.66
4151,13201,52.41
8911,17961,52.41
30851,4261,52.41

LONG RANGE COLL IN IR5
RFbucketbeam1,RFbucketbeam2,z-pos/m
4261,4151,-41.18
9021,8911,-41.18
13201,13091,-41.18
17961,17851,-41.18
22051,21941,-41.18
30961,30851,-41.18
4251,4151,-37.43
4261,4161,-37.43
9011,8911,-37.43
9021,8921,-37.43
13191,13091,-37.43
13201,13101,-37.43
17951,17851,-37.43
17961,17861,-37.43
22041,21941,-37.43
22051,21951,-37.43
30951,30851,-37.43
30961,30861,-37.43
4241,4151,-33.69
4251,4161,-33.69
4261,4171,-33.69
9001,8911,-33.69
9011,8921,-33.69
9021,8931,-33.69
13181,13091,-33.69
13191,13101,-33.69
13201,13111,-33.69
17941,17851,-33.69
17951,17861,-33.69
17961,17871,-33.69
22031,21941,-33.69
22041,21951,-33.69
22051,21961,-33.69
30941,30851,-33.69
30951,30861,-33.69
30961,30871,-33.69
4231,4151,-29.95
4241,4161,-29.95
4251,4171,-29.95
4261,4181,-29.95
8991,8911,-29.95
9001,8921,-29.95
9011,8931,-29.95
9021,8941,-29.95
13171,13091,-29.95
13181,13101,-29.95
13191,13111,-29.95
13201,13121,-29.95
17931,17851,-29.95
17941,17861,-29.95
17951,17871,-29.95
17961,17881,-29.95
22021,21941,-29.95
22031,21951,-29.95
22041,21961,-29.95
22051,21971,-29.95
30931,30851,-29.95
30941,30861,-29.95
30951,30871,-29.95
30961,30881,-29.95
4221,4151,-26.2
4231,4161,-26.2
4241,4171,-26.2
4251,4181,-26.2
4261,4191,-26.2
8981,8911,-26.2
8991,8921,-26.2
9001,8931,-26.2
9011,8941,-26.2
9021,8951,-26.2
13161,13091,-26.2
13171,13101,-26.2
13181,13111,-26.2
13191,13121,-26.2
13201,13131,-26.2
17921,17851,-26.2
17931,17861,-26.2
17941,17871,-26.2
17951,17881,-26.2
17961,17891,-26.2
22011,21941,-26.2
22021,21951,-26.2
22031,21961,-26.2
22041,21971,-26.2
22051,21981,-26.2
30921,30851,-26.2
30931,30861,-26.2
30941,30871,-26.2
30951,30881,-26.2
30961,30891,-26.2
4211,4151,-22.46
4221,4161,-22.46
4231,4171,-22.46
4241,4181,-22.46
4251,4191,-22.46
4261,4201,-22.46
8971,8911,-22.46
8981,8921,-22.46
8991,8931,-22.46
9001,8941,-22.46
9011,8951,-22.46
9021,8961,-22.46
13151,13091,-22.46
13161,13101,-22.46
13171,13111,-22.46
13181,13121,-22.46
13191,13131,-22.46
13201,13141,-22.46
17911,17851,-22.46
17921,17861,-22.46
17931,17871,-22.46
17941,17881,-22.46
17951,17891,-22.46
17961,17901,-22.46
22001,21941,-22.46
22011,21951,-22.46
22021,21961,-22.46
22031,21971,-22.46
22041,21981,-22.46
22051,21991,-22.46
30911,30851,-22.46
30921,30861,-22.46
30931,30871,-22.46
30941,30881,-22.46
30951,30891,-22.46
30961,30901,-22.46
4201,4151,-18.72
4211,4161,-18.72
4221,4171,-18.72
4231,4181,-18.72
4241,4191,-18.72
4251,4201,-18.72
4261,4211,-18.72
8961,8911,-18.72
8971,8921,-18.72
8981,8931,-18.72
8991,8941,-18.72
9001,8951,-18.72
9011,8961,-18.72
9021,8971,-18.72
13141,13091,-18.72
13151,13101,-18.72
13161,13111,-18.72
13171,13121,-18.72
13181,13131,-18.72
13191,13141,-18.72
13201,13151,-18.72
17901,17851,-18.72
17911,17861,-18.72
17921,17871,-18.72
17931,17881,-18.72
17941,17891,-18.72
17951,17901,-18.72
17961,17911,-18.72
21991,21941,-18.72
22001,21951,-18.72
22011,21961,-18.72
22021,21971,-18.72
22031,21981,-18.72
22041,21991,-18.72
22051,22001,-18.72
30901,30851,-18.72
30911,30861,-18.72
30921,30871,-18.72
30931,30881,-18.72
30941,30891,-18.72
30951,30901,-18.72
30961,30911,-18.72
4191,4151,-14.97
4201,4161,-14.97
4211,4171,-14.97
4221,4181,-14.97
4231,4191,-14.97
4241,4201,-14.97
4251,4211,-14.97
4261,4221,-14.97
8951,8911,-14.97
8961,8921,-14.97
8971,8931,-14.97
8981,8941,-14.97
8991,8951,-14.97
9001,8961,-14.97
9011,8971,-14.97
9021,8981,-14.97
13131,13091,-14.97
13141,13101,-14.97
13151,13111,-14.97
13161,13121,-14.97
13171,13131,-14.97
13181,13141,-14.97
13191,13151,-14.97
13201,13161,-14.97
17891,17851,-14.97
17901,17861,-14.97
17911,17871,-14.97
17921,17881,-14.97
17931,17891,-14.97
17941,17901,-14.97
17951,17911,-14.97
17961,17921,-14.97
21981,21941,-14.97
21991,21951,-14.97
22001,21961,-14.97
22011,21971,-14.97
22021,21981,-14.97
22031,21991,-14.97
22041,22001,-14.97
22051,22011,-14.97
30891,30851,-14.97
30901,30861,-14.97
30911,30871,-14.97
30921,30881,-14.97
30931,30891,-14.97
30941,30901,-14.97
30951,30911,-14.97
30961,30921,-14.97
4181,4151,-11.23
4191,4161,-11.23
4201,4171,-11.23
4211,4181,-11.23
4221,4191,-11.23
4231,4201,-11.23
4241,4211,-11.23
4251,4221,-11.23
4261,4231,-11.23
8941,8911,-11.23
8951,8921,-11.23
8961,8931,-11.23
8971,8941,-11.23
8981,8951,-11.23
8991,8961,-11.23
9001,8971,-11.23
9011,8981,-11.23
9021,8991,-11.23
13121,13091,-11.23
13131,13101,-11.23
13141,13111,-11.23
13151,13121,-11.23
13161,13131,-11.23
13171,13141,-11.23
13181,13151,-11.23
13191,13161,-11.23
13201,13171,-11.23
17881,17851,-11.23
17891,17861,-11.23
17901,17871,-11.23
17911,17881,-11.23
17921,17891,-11.23
17931,17901,-11.23
17941,17911,-11.23
17951,17921,-11.23
17961,17931,-11.23
21971,21941,-11.23
21981,21951,-11.23
21991,21961,-11.23
22001,21971,-11.23
22011,21981,-11.23
22021,21991,-11.23
22031,22001,-11.23
22041,22011,-11.23
22051,22021,-11.23
30881,30851,-11.23
30891,30861,-11.23
30901,30871,-11.23
30911,30881,-11.23
30921,30891,-11.23
30931,30901,-11.23
30941,30911,-11.23
30951,30921,-11.23
30961,30931,-11.23
4171,4151,-7.49
4181,4161,-7.49
4191,4171,-7.49
4201,4181,-7.49
4211,4191,-7.49
4221,4201,-7.49
4231,4211,-7.49
4241,4221,-7.49
4251,4231,-7.49
4261,4241,-7.49
8931,8911,-7.49
8941,8921,-7.49
8951,8931,-7.49
8961,8941,-7.49
8971,8951,-7.49
8981,8961,-7.49
8991,8971,-7.49
9001,8981,-7.49
9011,8991,-7.49
9021,9001,-7.49
13111,13091,-7.49
13121,13101,-7.49
13131,13111,-7.49
13141,13121,-7.49
13151,13131,-7.49
13161,13141,-7.49
13171,13151,-7.49
13181,13161,-7.49
13191,13171,-7.49
13201,13181,-7.49
17871,17851,-7.49
17881,17861,-7.49
17891,17871,-7.49
17901,17881,-7.49
17911,17891,-7.49
17921,17901,-7.49
17931,17911,-7.49
17941,17921,-7.49
17951,17931,-7.49
17961,17941,-7.49
21961,21941,-7.49
21971,21951,-7.49
21981,21961,-7.49
21991,21971,-7.49
22001,21981,-7.49
22011,21991,-7.49
22021,22001,-7.49
22031,22011,-7.49
22041,22021,-7.49
22051,22031,-7.49
30871,30851,-7.49
30881,30861,-7.49
30891,30871,-7.49
30901,30881,-7.49
30911,30891,-7.49
30921,30901,-7.49
30931,30911,-7.49
30941,30921,-7.49
30951,30931,-7.49
30961,30941,-7.49
4161,4151,-3.74
4171,4161,-3.74
4181,4171,-3.74
4191,4181,-3.74
4201,4191,-3.74
4211,4201,-3.74
4221,4211,-3.74
4231,4221,-3.74
4241,4231,-3.74
4251,4241,-3.74
4261,4251,-3.74
8921,8911,-3.74
8931,8921,-3.74
8941,8931,-3.74
8951,8941,-3.74
8961,8951,-3.74
8971,8961,-3.74
8981,8971,-3.74
8991,8981,-3.74
9001,8991,-3.74
9011,9001,-3.74
9021,9011,-3.74
13101,13091,-3.74
13111,13101,-3.74
13121,13111,-3.74
13131,13121,-3.74
13141,13131,-3.74
13151,13141,-3.74
13161,13151,-3.74
13171,13161,-3.74
13181,13171,-3.74
13191,13181,-3.74
13201,13191,-3.74
17861,17851,-3.74
17871,17861,-3.74
17881,17871,-3.74
17891,17881,-3.74
17901,17891,-3.74
17911,17901,-3.74
17921,17911,-3.74
17931,17921,-3.74
17941,17931,-3.74
17951,17941,-3.74
17961,17951,-3.74
21951,21941,-3.74
21961,21951,-3.74
21971,21961,-3.74
21981,21971,-3.74
21991,21981,-3.74
22001,21991,-3.74
22011,22001,-3.74
22021,22011,-3.74
22031,22021,-3.74
22041,22031,-3.74
22051,22041,-3.74
30861,30851,-3.74
30871,30861,-3.74
30881,30871,-3.74
30891,30881,-3.74
30901,30891,-3.74
30911,30901,-3.74
30921,30911,-3.74
30931,30921,-3.74
30941,30931,-3.74
30951,30941,-3.74
30961,30951,-3.74
1,1,0
4151,4151,0
4161,4161,0
4171,4171,0
4181,4181,0
4191,4191,0
4201,4201,0
4211,4211,0
4221,4221,0
4231,4231,0
4241,4241,0
4251,4251,0
4261,4261,0
8911,8911,0
8921,8921,0
8931,8931,0
8941,8941,0
8951,8951,0
8961,8961,0
8971,8971,0
8981,8981,0
8991,8991,0
9001,9001,0
9011,9011,0
9021,9021,0
13091,13091,0
13101,13101,0
13111,13111,0
13121,13121,0
13131,13131,0
13141,13141,0
13151,13151,0
13161,13161,0
13171,13171,0
13181,13181,0
13191,13191,0
13201,13201,0
17851,17851,0
17861,17861,0
17871,17871,0
17881,17881,0
17891,17891,0
17901,17901,0
17911,17911,0
17921,17921,0
17931,17931,0
17941,17941,0
17951,17951,0
17961,17961,0
21941,21941,0
21951,21951,0
21961,21961,0
21971,21971,0
21981,21981,0
21991,21991,0
22001,22001,0
22011,22011,0
22021,22021,0
22031,22031,0
22041,22041,0
22051,22051,0
30851,30851,0
30861,30861,0
30871,30871,0
30881,30881,0
30891,30891,0
30901,30901,0
30911,30911,0
30921,30921,0
30931,30931,0
30941,30941,0
30951,30951,0
30961,30961,0
4151,4161,3.74
4161,4171,3.74
4171,4181,3.74
4181,4191,3.74
4191,4201,3.74
4201,4211,3.74
4211,4221,3.74
4221,4231,3.74
4231,4241,3.74
4241,4251,3.74
4251,4261,3.74
8911,8921,3.74
8921,8931,3.74
8931,8941,3.74
8941,8951,3.74
8951,8961,3.74
8961,8971,3.74
8971,8981,3.74
8981,8991,3.74
8991,9001,3.74
9001,9011,3.74
9011,9021,3.74
13091,13101,3.74
13101,13111,3.74
13111,13121,3.74
13121,13131,3.74
13131,13141,3.74
13141,13151,3.74
13151,13161,3.74
13161,13171,3.74
13171,13181,3.74
13181,13191,3.74
13191,13201,3.74
17851,17861,3.74
17861,17871,3.74
17871,17881,3.74
17881,17891,3.74
17891,17901,3.74
17901,17911,3.74
17911,17921,3.74
17921,17931,3.74
17931,17941,3.74
17941,17951,3.74
17951,17961,3.74
21941,21951,3.74
21951,21961,3.74
21961,21971,3.74
21971,21981,3.74
21981,21991,3.74
21991,22001,3.74
22001,22011,3.74
22011,22021,3.74
22021,22031,3.74
22031,22041,3.74
22041,22051,3.74
30851,30861,3.74
30861,30871,3.74
30871,30881,3.74
30881,30891,3.74
30891,30901,3.74
30901,30911,3.74
30911,30921,3.74
30921,30931,3.74
30931,30941,3.74
30941,30951,3.74
30951,30961,3.74
4151,4171,7.49
4161,4181,7.49
4171,4191,7.49
4181,4201,7.49
4191,4211,7.49
4201,4221,7.49
4211,4231,7.49
4221,4241,7.49
4231,4251,7.49
4241,4261,7.49
8911,8931,7.49
8921,8941,7.49
8931,8951,7.49
8941,8961,7.49
8951,8971,7.49
8961,8981,7.49
8971,8991,7.49
8981,9001,7.49
8991,9011,7.49
9001,9021,7.49
13091,13111,7.49
13101,13121,7.49
13111,13131,7.49
13121,13141,7.49
13131,13151,7.49
13141,13161,7.49
13151,13171,7.49
13161,13181,7.49
13171,13191,7.49
13181,13201,7.49
17851,17871,7.49
17861,17881,7.49
17871,17891,7.49
17881,17901,7.49
17891,17911,7.49
17901,17921,7.49
17911,17931,7.49
17921,17941,7.49
17931,17951,7.49
17941,17961,7.49
21941,21961,7.49
21951,21971,7.49
21961,21981,7.49
21971,21991,7.49
21981,22001,7.49
21991,22011,7.49
22001,22021,7.49
22011,22031,7.49
22021,22041,7.49
22031,22051,7.49
30851,30871,7.49
30861,30881,7.49
30871,30891,7.49
30881,30901,7.49
30891,30911,7.49
30901,30921,7.49
30911,30931,7.49
30921,30941,7.49
30931,30951,7.49
30941,30961,7.49
4151,4181,11.23
4161,4191,11.23
4171,4201,11.23
4181,4211,11.23
4191,4221,11.23
4201,4231,11.23
4211,4241,11.23
4221,4251,11.23
4231,4261,11.23
8911,8941,11.23
8921,8951,11.23
8931,8961,11.23
8941,8971,11.23
8951,8981,11.23
8961,8991,11.23
8971,9001,11.23
8981,9011,11.23
8991,9021,11.23
13091,13121,11.23
13101,13131,11.23
13111,13141,11.23
13121,13151,11.23
13131,13161,11.23
13141,13171,11.23
13151,13181,11.23
13161,13191,11.23
13171,13201,11.23
17851,17881,11.23
17861,17891,11.23
17871,17901,11.23
17881,17911,11.23
17891,17921,11.23
17901,17931,11.23
17911,17941,11.23
17921,17951,11.23
17931,17961,11.23
21941,21971,11.23
21951,21981,11.23
21961,21991,11.23
21971,22001,11.23
21981,22011,11.23
21991,22021,11.23
22001,22031,11.23
22011,22041,11.23
22021,22051,11.23
30851,30881,11.23
30861,30891,11.23
30871,30901,11.23
30881,30911,11.23
30891,30921,11.23
30901,30931,11.23
30911,30941,11.23
30921,30951,11.23
30931,30961,11.23
4151,4191,14.97
4161,4201,14.97
4171,4211,14.97
4181,4221,14.97
4191,4231,14.97
4201,4241,14.97
4211,4251,14.97
4221,4261,14.97
8911,8951,14.97
8921,8961,14.97
8931,8971,14.97
8941,8981,14.97
8951,8991,14.97
8961,9001,14.97
8971,9011,14.97
8981,9021,14.97
13091,13131,14.97
13101,13141,14.97
13111,13151,14.97
13121,13161,14.97
13131,13171,14.97
13141,13181,14.97
13151,13191,14.97
13161,13201,14.97
17851,17891,14.97
17861,17901,14.97
17871,17911,14.97
17881,17921,14.97
17891,17931,14.97
17901,17941,14.97
17911,17951,14.97
17921,17961,14.97
21941,21981,14.97
21951,21991,14.97
21961,22001,14.97
21971,22011,14.97
21981,22021,14.97
21991,22031,14.97
22001,22041,14.97
22011,22051,14.97
30851,30891,14.97
30861,30901,14.97
30871,30911,14.97
30881,30921,14.97
30891,30931,14.97
30901,30941,14.97
30911,30951,14.97
30921,30961,14.97
4151,4201,18.72
4161,4211,18.72
4171,4221,18.72
4181,4231,18.72
4191,4241,18.72
4201,4251,18.72
4211,4261,18.72
8911,8961,18.72
8921,8971,18.72
8931,8981,18.72
8941,8991,18.72
8951,9001,18.72
8961,9011,18.72
8971,9021,18.72
13091,13141,18.72
13101,13151,18.72
13111,13161,18.72
13121,13171,18.72
13131,13181,18.72
13141,13191,18.72
13151,13201,18.72
17851,17901,18.72
17861,17911,18.72
17871,17921,18.72
17881,17931,18.72
17891,17941,18.72
17901,17951,18.72
17911,17961,18.72
21941,21991,18.72
21951,22001,18.72
21961,22011,18.72
21971,22021,18.72
21981,22031,18.72
21991,22041,18.72
22001,22051,18.72
30851,30901,18.72
30861,30911,18.72
30871,30921,18.72
30881,30931,18.72
30891,30941,18.72
30901,30951,18.72
30911,30961,18.72
4151,4211,22.46
4161,4221,22.46
4171,4231,22.46
4181,4241,22.46
4191,4251,22.46
4201,4261,22.46
8911,8971,22.46
8921,8981,22.46
8931,8991,22.46
8941,9001,22.46
8951,9011,22.46
8961,9021,22.46
13091,13151,22.46
13101,13161,22.46
13111,13171,22.46
13121,13181,22.46
13131,13191,22.46
13141,13201,22.46
17851,17911,22.46
17861,17921,22.46
17871,17931,22.46
17881,17941,22.46
17891,17951,22.46
17901,17961,22.46
21941,22001,22.46
21951,22011,22.46
21961,22021,22.46
21971,22031,22.46
21981,22041,22.46
21991,22051,22.46
30851,30911,22.46
30861,30921,22.46
30871,30931,22.46
30881,30941,22.46
30891,30951,22.46
30901,30961,22.46
4151,4221,26.2
4161,4231,26.2
4171,4241,26.2
4181,4251,26.2
4191,4261,26.2
8911,8981,26.2
8921,8991,26.2
8931,9001,26.2
8941,9011,26.2
8951,9021,26.2
13091,13161,26.2
13101,13171,26.2
13111,13181,26.2
13121,13191,26.2
13131,13201,26.2
17851,17921,26.2
17861,17931,26.2
17871,17941,26.2
17881,17951,26.2
17891,17961,26.2
21941,22011,26.2
21951,22021,26.2
21961,22031,26.2
21971,22041,26.2
21981,22051,26.2
30851,30921,26.2
30861,30931,26.2
30871,30941,26.2
30881,30951,26.2
30891,30961,26.2
4151,4231,29.95
4161,4241,29.95
4171,4251,29.95
4181,4261,29.95
8911,8991,29.95
8921,9001,29.95
8931,9011,29.95
8941,9021,29.95
13091,13171,29.95
13101,13181,29.95
13111,13191,29.95
13121,13201,29.95
17851,17931,29.95
17861,17941,29.95
17871,17951,29.95
17881,17961,29.95
21941,22021,29.95
21951,22031,29.95
21961,22041,29.95
21971,22051,29.95
30851,30931,29.95
30861,30941,29.95
30871,30951,29.95
30881,30961,29.95
4151,4241,33.69
4161,4251,33.69
4171,4261,33.69
8911,9001,33.69
8921,9011,33.69
8931,9021,33.69
13091,13181,33.69
13101,13191,33.69
13111,13201,33.69
17851,17941,33.69
17861,17951,33.69
17871,17961,33.69
21941,22031,33.69
21951,22041,33.69
21961,22051,33.69
30851,30941,33.69
30861,30951,33.69
30871,30961,33.69
4151,4251,37.43
4161,4261,37.43
8911,9011,37.43
8921,9021,37.43
13091,13191,37.43
13101,13201,37.43
17851,17951,37.43
17861,17961,37.43
21941,22041,37.43
21951,22051,37.43
30851,30951,37.43
30861,30961,37.43
4151,4261,41.18
8911,9021,41.18
13091,13201,41.18
17851,17961,41.18
21941,22051,41.18
30851,30961,41.18

LONG RANGE COLL IN IR8
RFbucketbeam1,RFbucketbeam2,z-pos/m
4261,30851,-41.18
13201,4151,-41.18
17961,8911,-41.18
4251,30851,-37.43
4261,30861,-37.43
13191,4151,-37.43
13201,4161,-37.43
17951,8911,-37.43
17961,8921,-37.43
4241,30851,-33.69
4251,30861,-33.69
4261,30871,-33.69
13181,4151,-33.69
13191,4161,-33.69
13201,4171,-33.69
17941,8911,-33.69
17951,8921,-33.69
17961,8931,-33.69
4231,30851,-29.95
4241,30861,-29.95
4251,30871,-29.95
4261,30881,-29.95
9021,1,-29.95
13171,4151,-29.95
13181,4161,-29.95
13191,4171,-29.95
13201,4181,-29.95
17931,8911,-29.95
17941,8921,-29.95
17951,8931,-29.95
17961,8941,-29.95
30961,21941,-29.95
4221,30851,-26.2
4231,30861,-26.2
4241,30871,-26.2
4251,30881,-26.2
4261,30891,-26.2
9011,1,-26.2
13161,4151,-26.2
13171,4161,-26.2
13181,4171,-26.2
13191,4181,-26.2
13201,4191,-26.2
17921,8911,-26.2
17931,8921,-26.2
17941,8931,-26.2
17951,8941,-26.2
17961,8951,-26.2
30951,21941,-26.2
30961,21951,-26.2
4211,30851,-22.46
4221,30861,-22.46
4231,30871,-22.46
4241,30881,-22.46
4251,30891,-22.46
4261,30901,-22.46
9001,1,-22.46
13151,4151,-22.46
13161,4161,-22.46
13171,4171,-22.46
13181,4181,-22.46
13191,4191,-22.46
13201,4201,-22.46
17911,8911,-22.46
17921,8921,-22.46
17931,8931,-22.46
17941,8941,-22.46
17951,8951,-22.46
17961,8961,-22.46
30941,21941,-22.46
30951,21951,-22.46
30961,21961,-22.46
4201,30851,-18.72
4211,30861,-18.72
4221,30871,-18.72
4231,30881,-18.72
4241,30891,-18.72
4251,30901,-18.72
4261,30911,-18.72
8991,1,-18.72
13141,4151,-18.72
13151,4161,-18.72
13161,4171,-18.72
13171,4181,-18.72
13181,4191,-18.72
13191,4201,-18.72
13201,4211,-18.72
17901,8911,-18.72
17911,8921,-18.72
17921,8931,-18.72
17931,8941,-18.72
17941,8951,-18.72
17951,8961,-18.72
17961,8971,-18.72
30931,21941,-18.72
30941,21951,-18.72
30951,21961,-18.72
30961,21971,-18.72
4191,30851,-14.97
4201,30861,-14.97
4211,30871,-14.97
4221,30881,-14.97
4231,30891,-14.97
4241,30901,-14.97
4251,30911,-14.97
4261,30921,-14.97
8981,1,-14.97
13131,4151,-14.97
13141,4161,-14.97
13151,4171,-14.97
13161,4181,-14.97
13171,4191,-14.97
13181,4201,-14.97
13191,4211,-14.97
13201,4221,-14.97
17891,8911,-14.97
17901,8921,-14.97
17911,8931,-14.97
17921,8941,-14.97
17931,8951,-14.97
17941,8961,-14.97
17951,8971,-14.97
17961,8981,-14.97
30921,21941,-14.97
30931,21951,-14.97
30941,21961,-14.97
30951,21971,-14.97
30961,21981,-14.97
4181,30851,-11.23
4191,30861,-11.23
4201,30871,-11.23
4211,30881,-11.23
4221,30891,-11.23
4231,30901,-11.23
4241,30911,-11.23
4251,30921,-11.23
4261,30931,-11.23
8971,1,-11.23
13121,4151,-11.23
13131,4161,-11.23
13141,4171,-11.23
13151,4181,-11.23
13161,4191,-11.23
13171,4201,-11.23
13181,4211,-11.23
13191,4221,-11.23
13201,4231,-11.23
17881,8911,-11.23
17891,8921,-11.23
17901,8931,-11.23
17911,8941,-11.23
17921,8951,-11.23
17931,8961,-11.23
17941,8971,-11.23
17951,8981,-11.23
17961,8991,-11.23
30911,21941,-11.23
30921,21951,-11.23
30931,21961,-11.23
30941,21971,-11.23
30951,21981,-11.23
30961,21991,-11.23
4171,30851,-7.49
4181,30861,-7.49
4191,30871,-7.49
4201,30881,-7.49
4211,30891,-7.49
4221,30901,-7.49
4231,30911,-7.49
4241,30921,-7.49
4251,30931,-7.49
4261,30941,-7.49
8961,1,-7.49
13111,4151,-7.49
13121,4161,-7.49
13131,4171,-7.49
13141,4181,-7.49
13151,4191,-7.49
13161,4201,-7.49
13171,4211,-7.49
13181,4221,-7.49
13191,4231,-7.49
13201,4241,-7.49
17871,8911,-7.49
17881,8921,-7.49
17891,8931,-7.49
17901,8941,-7.49
17911,8951,-7.49
17921,8961,-7.49
17931,8971,-7.49
17941,8981,-7.49
17951,8991,-7.49
17961,9001,-7.49
22051,13091,-7.49
30901,21941,-7.49
30911,21951,-7.49
30921,21961,-7.49
30931,21971,-7.49
30941,21981,-7.49
30951,21991,-7.49
30961,22001,-7.49
4161,30851,-3.74
4171,30861,-3.74
4181,30871,-3.74
4191,30881,-3.74
4201,30891,-3.74
4211,30901,-3.74
4221,30911,-3.74
4231,30921,-3.74
4241,30931,-3.74
4251,30941,-3.74
4261,30951,-3.74
8951,1,-3.74
13101,4151,-3.74
13111,4161,-3.74
13121,4171,-3.74
13131,4181,-3.74
13141,4191,-3.74
13151,4201,-3.74
13161,4211,-3.74
13171,4221,-3.74
13181,4231,-3.74
13191,4241,-3.74
13201,4251,-3.74
17861,8911,-3.74
17871,8921,-3.74
17881,8931,-3.74
17891,8941,-3.74
17901,8951,-3.74
17911,8961,-3.74
17921,8971,-3.74
17931,8981,-3.74
17941,8991,-3.74
17951,9001,-3.74
17961,9011,-3.74
22041,13091,-3.74
22051,13101,-3.74
30891,21941,-3.74
30901,21951,-3.74
30911,21961,-3.74
30921,21971,-3.74
30931,21981,-3.74
30941,21991,-3.74
30951,22001,-3.74
30961,22011,-3.74
4151,30851,0
4161,30861,0
4171,30871,0
4181,30881,0
4191,30891,0
4201,30901,0
4211,30911,0
4221,30921,0
4231,30931,0
4241,30941,0
4251,30951,0
4261,30961,0
8941,1,0
13091,4151,0
13101,4161,0
13111,4171,0
13121,4181,0
13131,4191,0
13141,4201,0
13151,4211,0
13161,4221,0
13171,4231,0
13181,4241,0
13191,4251,0
13201,4261,0
17851,8911,0
17861,8921,0
17871,8931,0
17881,8941,0
17891,8951,0
17901,8961,0
17911,8971,0
17921,8981,0
17931,8991,0
17941,9001,0
17951,9011,0
17961,9021,0
22031,13091,0
22041,13101,0
22051,13111,0
30881,21941,0
30891,21951,0
30901,21961,0
30911,21971,0
30921,21981,0
30931,21991,0
30941,22001,0
30951,22011,0
30961,22021,0
4151,30861,3.74
4161,30871,3.74
4171,30881,3.74
4181,30891,3.74
4191,30901,3.74
4201,30911,3.74
4211,30921,3.74
4221,30931,3.74
4231,30941,3.74
4241,30951,3.74
4251,30961,3.74
8931,1,3.74
13091,4161,3.74
13101,4171,3.74
13111,4181,3.74
13121,4191,3.74
13131,4201,3.74
13141,4211,3.74
13151,4221,3.74
13161,4231,3.74
13171,4241,3.74
13181,4251,3.74
13191,4261,3.74
17851,8921,3.74
17861,8931,3.74
17871,8941,3.74
17881,8951,3.74
17891,8961,3.74
17901,8971,3.74
17911,8981,3.74
17921,8991,3.74
17931,9001,3.74
17941,9011,3.74
17951,9021,3.74
22021,13091,3.74
22031,13101,3.74
22041,13111,3.74
22051,13121,3.74
30871,21941,3.74
30881,21951,3.74
30891,21961,3.74
30901,21971,3.74
30911,21981,3.74
30921,21991,3.74
30931,22001,3.74
30941,22011,3.74
30951,22021,3.74
30961,22031,3.74
4151,30871,7.49
4161,30881,7.49
4171,30891,7.49
4181,30901,7.49
4191,30911,7.49
4201,30921,7.49
4211,30931,7.49
4221,30941,7.49
4231,30951,7.49
4241,30961,7.49
8921,1,7.49
13091,4171,7.49
13101,4181,7.49
13111,4191,7.49
13121,4201,7.49
13131,4211,7.49
13141,4221,7.49
13151,4231,7.49
13161,4241,7.49
13171,4251,7.49
13181,4261,7.49
17851,8931,7.49
17861,8941,7.49
17871,8951,7.49
17881,8961,7.49
17891,8971,7.49
17901,8981,7.49
17911,8991,7.49
17921,9001,7.49
17931,9011,7.49
17941,9021,7.49
22011,13091,7.49
22021,13101,7.49
22031,13111,7.49
22041,13121,7.49
22051,13131,7.49
30861,21941,7.49
30871,21951,7.49
30881,21961,7.49
30891,21971,7.49
30901,21981,7.49
30911,21991,7.49
30921,22001,7.49
30931,22011,7.49
30941,22021,7.49
30951,22031,7.49
30961,22041,7.49
4151,30881,11.23
4161,30891,11.23
4171,30901,11.23
4181,30911,11.23
4191,30921,11.23
4201,30931,11.23
4211,30941,11.23
4221,30951,11.23
4231,30961,11.23
8911,1,11.23
13091,4181,11.23
13101,4191,11.23
13111,4201,11.23
13121,4211,11.23
13131,4221,11.23
13141,4231,11.23
13151,4241,11.23
13161,4251,11.23
13171,4261,11.23
17851,8941,11.23
17861,8951,11.23
17871,8961,11.23
17881,8971,11.23
17891,8981,11.23
17901,8991,11.23
17911,9001,11.23
17921,9011,11.23
17931,9021,11.23
22001,13091,11.23
22011,13101,11.23
22021,13111,11.23
22031,13121,11.23
22041,13131,11.23
22051,13141,11.23
30851,21941,11.23
30861,21951,11.23
30871,21961,11.23
30881,21971,11.23
30891,21981,11.23
30901,21991,11.23
30911,22001,11.23
30921,22011,11.23
30931,22021,11.23
30941,22031,11.23
30951,22041,11.23
30961,22051,11.23
4151,30891,14.97
4161,30901,14.97
4171,30911,14.97
4181,30921,14.97
4191,30931,14.97
4201,30941,14.97
4211,30951,14.97
4221,30961,14.97
13091,4191,14.97
13101,4201,14.97
13111,4211,14.97
13121,4221,14.97
13131,4231,14.97
13141,4241,14.97
13151,4251,14.97
13161,4261,14.97
17851,8951,14.97
17861,8961,14.97
17871,8971,14.97
17881,8981,14.97
17891,8991,14.97
17901,9001,14.97
17911,9011,14.97
17921,9021,14.97
21991,13091,14.97
22001,13101,14.97
22011,13111,14.97
22021,13121,14.97
22031,13131,14.97
22041,13141,14.97
22051,13151,14.97
30851,21951,14.97
30861,21961,14.97
30871,21971,14.97
30881,21981,14.97
30891,21991,14.97
30901,22001,14.97
30911,22011,14.97
30921,22021,14.97
30931,22031,14.97
30941,22041,14.97
30951,22051,14.97
4151,30901,18.72
4161,30911,18.72
4171,30921,18.72
4181,30931,18.72
4191,30941,18.72
4201,30951,18.72
4211,30961,18.72
13091,4201,18.72
13101,4211,18.72
13111,4221,18.72
13121,4231,18.72
13131,4241,18.72
13141,4251,18.72
13151,4261,18.72
17851,8961,18.72
17861,8971,18.72
17871,8981,18.72
17881,8991,18.72
17891,9001,18.72
17901,9011,18.72
17911,9021,18.72
21981,13091,18.72
21991,13101,18.72
22001,13111,18.72
22011,13121,18.72
22021,13131,18.72
22031,13141,18.72
22041,13151,18.72
22051,13161,18.72
30851,21961,18.72
30861,21971,18.72
30871,21981,18.72
30881,21991,18.72
30891,22001,18.72
30901,22011,18.72
30911,22021,18.72
30921,22031,18.72
30931,22041,18.72
30941,22051,18.72
4151,30911,22.46
4161,30921,22.46
4171,30931,22.46
4181,30941,22.46
4191,30951,22.46
4201,30961,22.46
13091,4211,22.46
13101,4221,22.46
13111,4231,22.46
13121,4241,22.46
13131,4251,22.46
13141,4261,22.46
17851,8971,22.46
17861,8981,22.46
17871,8991,22.46
17881,9001,22.46
17891,9011,22.46
17901,9021,22.46
21971,13091,22.46
21981,13101,22.46
21991,13111,22.46
22001,13121,22.46
22011,13131,22.46
22021,13141,22.46
22031,13151,22.46
22041,13161,22.46
22051,13171,22.46
30851,21971,22.46
30861,21981,22.46
30871,21991,22.46
30881,22001,22.46
30891,22011,22.46
30901,22021,22.46
30911,22031,22.46
30921,22041,22.46
30931,22051,22.46
4151,30921,26.2
4161,30931,26.2
4171,30941,26.2
4181,30951,26.2
4191,30961,26.2
13091,4221,26.2
13101,4231,26.2
13111,4241,26.2
13121,4251,26.2
13131,4261,26.2
17851,8981,26.2
17861,8991,26.2
17871,9001,26.2
17881,9011,26.2
17891,9021,26.2
21961,13091,26.2
21971,13101,26.2
21981,13111,26.2
21991,13121,26.2
22001,13131,26.2
22011,13141,26.2
22021,13151,26.2
22031,13161,26.2
22041,13171,26.2
22051,13181,26.2
30851,21981,26.2
30861,21991,26.2
30871,22001,26.2
30881,22011,26.2
30891,22021,26.2
30901,22031,26.2
30911,22041,26.2
30921,22051,26.2
4151,30931,29.95
4161,30941,29.95
4171,30951,29.95
4181,30961,29.95
13091,4231,29.95
13101,4241,29.95
13111,4251,29.95
13121,4261,29.95
17851,8991,29.95
17861,9001,29.95
17871,9011,29.95
17881,9021,29.95
21951,13091,29.95
21961,13101,29.95
21971,13111,29.95
21981,13121,29.95
21991,13131,29.95
22001,13141,29.95
22011,13151,29.95
22021,13161,29.95
22031,13171,29.95
22041,13181,29.95
22051,13191,29.95
30851,21991,29.95
30861,22001,29.95
30871,22011,29.95
30881,22021,29.95
30891,22031,29.95
30901,22041,29.95
30911,22051,29.95
4151,30941,33.69
4161,30951,33.69
4171,30961,33.69
13091,4241,33.69
13101,4251,33.69
13111,4261,33.69
17851,9001,33.69
17861,9011,33.69
17871,9021,33.69
21941,13091,33.69
21951,13101,33.69
21961,13111,33.69
21971,13121,33.69
21981,13131,33.69
21991,13141,33.69
22001,13151,33.69
22011,13161,33.69
22021,13171,33.69
22031,13181,33.69
22041,13191,33.69
22051,13201,33.69
30851,22001,33.69
30861,22011,33.69
30871,22021,33.69
30881,22031,33.69
30891,22041,33.69
30901,22051,33.69
4151,30951,37.43
4161,30961,37.43
13091,4251,37.43
13101,4261,37.43
17851,9011,37.43
17861,9021,37.43
21941,13101,37.43
21951,13111,37.43
21961,13121,37.43
21971,13131,37.43
21981,13141,37.43
21991,13151,37.43
22001,13161,37.43
22011,13171,37.43
22021,13181,37.43
22031,13191,37.43
22041,13201,37.43
30851,22011,37.43
30861,22021,37.43
30871,22031,37.43
30881,22041,37.43
30891,22051,37.43
4151,30961,41.18
13091,4261,41.18
17851,9021,41.18
21941,13111,41.18
21951,13121,41.18
21961,13131,41.18
21971,13141,41.18
21981,13151,41.18
21991,13161,41.18
22001,13171,41.18
22011,13181,41.18
22021,13191,41.18
22031,13201,41.18
30851,22021,41.18
30861,22031,41.18
30871,22041,41.18
30881,22051,41.18
21941,13121,44.92
21951,13131,44.92
21961,13141,44.92
21971,13151,44.92
21981,13161,44.92
21991,13171,44.92
22001,13181,44.92
22011,13191,44.92
22021,13201,44.92
30851,22031,44.92
30861,22041,44.92
30871,22051,44.92
21941,13131,48.66
21951,13141,48.66
21961,13151,48.66
21971,13161,48.66
21981,13171,48.66
21991,13181,48.66
22001,13191,48.66
22011,13201,48.66
30851,22041,48.66
30861,22051,48.66
21941,13141,52.41
21951,13151,52.41
21961,13161,52.41
21971,13171,52.41
21981,13181,52.41
21991,13191,52.41
22001,13201,52.41
30851,22051,52.41
21941,13151,56.15
21951,13161,56.15
21961,13171,56.15
21971,13181,56.15
21981,13191,56.15
21991,13201,56.15
21941,13161,59.89
21951,13171,59.89
21961,13181,59.89
21971,13191,59.89
21981,13201,59.89
21941,13171,63.64
21951,13181,63.64
21961,13191,63.64
21971,13201,63.64


LONG RANGE FOR BEAM 1
RFbucket,Slot,Head-On IP1,Head-On IP2,Head-On IP5,Head-On IP8,Head-On Tot,LR IP1,LR IP2,LR IP5,LR IP8,LR Tot
1,0,1,1,1,0,3,0,11,0,0,11
3351,335,0,0,0,0,0,0,0,0,0,0
3361,336,0,0,0,0,0,0,0,0,0,0
3371,337,0,0,0,0,0,0,0,0,0,0
3381,338,0,0,0,0,0,0,0,0,0,0
3391,339,0,0,0,0,0,0,0,0,0,0
3401,340,0,0,0,0,0,0,0,0,0,0
3411,341,0,0,0,0,0,0,0,0,0,0
3421,342,0,0,0,0,0,0,0,0,0,0
3431,343,0,0,0,0,0,0,0,0,0,0
3441,344,0,0,0,0,0,0,0,0,0,0
3451,345,0,0,0,0,0,0,0,0,0,0
3461,346,0,0,0,0,0,0,0,0,0,0
4151,415,1,0,1,1,3,11,12,11,11,45
4161,416,1,0,1,1,3,11,12,11,11,45
4171,417,1,0,1,1,3,11,12,11,11,45
4181,418,1,1,1,1,4,11,11,11,11,44
4191,419,1,1,1,1,4,11,11,11,11,44
4201,420,1,1,1,1,4,11,11,11,11,44
4211,421,1,1,1,1,4,11,11,11,11,44
4221,422,1,1,1,1,4,11,11,11,11,44
4231,423,1,1,1,1,4,11,11,11,11,44
4241,424,1,1,1,1,4,11,11,11,11,44
4251,425,1,1,1,1,4,11,11,11,11,44
4261,426,1,1,1,1,4,11,11,11,11,44
8911,891,1,0,1,0,2,11,12,11,1,35
8921,892,1,0,1,0,2,11,12,11,1,35
8931,893,1,0,1,0,2,11,12,11,1,35
8941,894,1,1,1,1,4,11,11,11,0,33
8951,895,1,1,1,0,3,11,11,11,1,34
8961,896,1,1,1,0,3,11,11,11,1,34
8971,897,1,1,1,0,3,11,11,11,1,34
8981,898,1,1,1,0,3,11,11,11,1,34
8991,899,1,1,1,0,3,11,11,11,1,34
9001,900,1,1,1,0,3,11,11,11,1,34
9011,901,1,1,1,0,3,11,11,11,1,34
9021,902,1,1,1,0,3,11,11,11,1,34
13091,1309,1,1,1,1,4,11,11,11,11,44
13101,1310,1,1,1,1,4,11,11,11,11,44
13111,1311,1,1,1,1,4,11,11,11,11,44
13121,1312,1,1,1,1,4,11,11,11,11,44
13131,1313,1,1,1,1,4,11,11,11,11,44
13141,1314,1,1,1,1,4,11,11,11,11,44
13151,1315,1,0,1,1,3,11,12,11,11,45
13161,1316,1,0,1,1,3,11,12,11,11,45
13171,1317,1,0,1,1,3,11,12,11,11,45
13181,1318,1,0,1,1,3,11,12,11,11,45
13191,1319,1,0,1,1,3,11,12,11,11,45
13201,1320,1,0,1,1,3,11,12,11,11,45
17851,1785,1,0,1,1,3,11,0,11,11,33
17861,1786,1,0,1,1,3,11,0,11,11,33
17871,1787,1,0,1,1,3,11,0,11,11,33
17881,1788,1,0,1,1,3,11,0,11,11,33
17891,1789,1,0,1,1,3,11,0,11,11,33
17901,1790,1,0,1,1,3,11,0,11,11,33
17911,1791,1,0,1,1,3,11,0,11,11,33
17921,1792,1,0,1,1,3,11,0,11,11,33
17931,1793,1,0,1,1,3,11,0,11,11,33
17941,1794,1,0,1,1,3,11,0,11,11,33
17951,1795,1,0,1,1,3,11,0,11,11,33
17961,1796,1,0,1,1,3,11,0,11,11,33
21941,2194,1,1,1,0,3,11,11,11,9,42
21951,2195,1,1,1,0,3,11,11,11,10,43
21961,2196,1,1,1,0,3,11,11,11,11,44
21971,2197,1,1,1,0,3,11,11,11,12,45
21981,2198,1,1,1,0,3,11,11,11,12,45
21991,2199,1,1,1,0,3,11,11,11,12,45
22001,2200,1,1,1,0,3,11,11,11,12,45
22011,2201,1,1,1,0,3,11,11,11,12,45
22021,2202,1,1,1,0,3,11,11,11,12,45
22031,2203,1,1,1,1,4,11,11,11,11,44
22041,2204,1,1,1,1,4,11,11,11,11,44
22051,2205,1,1,1,1,4,11,11,11,11,44
30851,3085,1,0,1,0,2,11,12,11,12,46
30861,3086,1,0,1,0,2,11,12,11,12,46
30871,3087,1,0,1,0,2,11,12,11,12,46
30881,3088,1,1,1,1,4,11,11,11,11,44
30891,3089,1,1,1,1,4,11,11,11,11,44
30901,3090,1,1,1,1,4,11,11,11,11,44
30911,3091,1,1,1,1,4,11,11,11,11,44
30921,3092,1,1,1,1,4,11,11,11,11,44
30931,3093,1,1,1,1,4,11,11,11,11,44
30941,3094,1,1,1,1,4,11,11,11,11,44
30951,3095,1,1,1,1,4,11,11,11,11,44
30961,3096,1,1,1,1,4,11,11,11,11,44

LONG RANGE FOR BEAM 2
RFbucket,Slot,Head-On IP1,Head-On IP2,Head-On IP5,Head-On IP8,Head-On Tot,LR IP1,LR IP2,LR IP5,LR IP8,LR Tot
1,0,1,0,1,1,3,0,0,0,11,11
3661,366,0,0,0,0,0,0,0,0,0,0
3671,367,0,0,0,0,0,0,0,0,0,0
3681,368,0,0,0,0,0,0,0,0,0,0
3691,369,0,0,0,0,0,0,0,0,0,0
3701,370,0,0,0,0,0,0,0,0,0,0
3711,371,0,0,0,0,0,0,0,0,0,0
3721,372,0,0,0,0,0,0,0,0,0,0
3731,373,0,0,0,0,0,0,0,0,0,0
3741,374,0,0,0,0,0,0,0,0,0,0
3751,375,0,0,0,0,0,0,0,0,0,0
3761,376,0,0,0,0,0,0,0,0,0,0
3771,377,0,0,0,0,0,0,0,0,0,0
4151,415,1,1,1,1,4,11,11,11,11,44
4161,416,1,1,1,1,4,11,11,11,11,44
4171,417,1,1,1,1,4,11,11,11,11,44
4181,418,1,1,1,1,4,11,11,11,11,44
4191,419,1,1,1,1,4,11,11,11,11,44
4201,420,1,1,1,1,4,11,11,11,11,44
4211,421,1,1,1,1,4,11,11,11,11,44
4221,422,1,1,1,1,4,11,11,11,11,44
4231,423,1,1,1,1,4,11,11,11,11,44
4241,424,1,0,1,1,3,11,12,11,11,45
4251,425,1,0,1,1,3,11,12,11,11,45
4261,426,1,0,1,1,3,11,12,11,11,45
8911,891,1,1,1,1,4,11,0,11,11,33
8921,892,1,0,1,1,3,11,1,11,11,34
8931,893,1,0,1,1,3,11,1,11,11,34
8941,894,1,0,1,1,3,11,1,11,11,34
8951,895,1,0,1,1,3,11,1,11,11,34
8961,896,1,0,1,1,3,11,1,11,11,34
8971,897,1,0,1,1,3,11,1,11,11,34
8981,898,1,0,1,1,3,11,1,11,11,34
8991,899,1,0,1,1,3,11,1,11,11,34
9001,900,1,0,1,1,3,11,1,11,11,34
9011,901,1,0,1,1,3,11,1,11,11,34
9021,902,1,0,1,1,3,11,1,11,11,34
13091,1309,1,1,1,1,4,11,11,11,11,44
13101,1310,1,1,1,1,4,11,11,11,11,44
13111,1311,1,1,1,1,4,11,11,11,11,44
13121,1312,1,1,1,0,3,11,11,11,12,45
13131,1313,1,1,1,0,3,11,11,11,12,45
13141,1314,1,1,1,0,3,11,11,11,12,45
13151,1315,1,1,1,0,3,11,11,11,12,45
13161,1316,1,1,1,0,3,11,11,11,12,45
13171,1317,1,1,1,0,3,11,11,11,12,45
13181,1318,1,0,1,0,2,11,12,11,11,45
13191,1319,1,0,1,0,2,11,12,11,10,44
13201,1320,1,0,1,0,2,11,12,11,9,43
17851,1785,1,1,1,0,3,11,11,11,0,33
17861,1786,1,1,1,0,3,11,11,11,0,33
17871,1787,1,1,1,0,3,11,11,11,0,33
17881,1788,1,1,1,0,3,11,11,11,0,33
17891,1789,1,1,1,0,3,11,11,11,0,33
17901,1790,1,1,1,0,3,11,11,11,0,33
17911,1791,1,1,1,0,3,11,11,11,0,33
17921,1792,1,1,1,0,3,11,11,11,0,33
17931,1793,1,1,1,0,3,11,11,11,0,33
17941,1794,1,0,1,0,2,11,12,11,0,34
17951,1795,1,0,1,0,2,11,12,11,0,34
17961,1796,1,0,1,0,2,11,12,11,0,34
21941,2194,1,0,1,1,3,11,12,11,11,45
21951,2195,1,0,1,1,3,11,12,11,11,45
21961,2196,1,0,1,1,3,11,12,11,11,45
21971,2197,1,0,1,1,3,11,12,11,11,45
21981,2198,1,0,1,1,3,11,12,11,11,45
21991,2199,1,0,1,1,3,11,12,11,11,45
22001,2200,1,1,1,1,4,11,11,11,11,44
22011,2201,1,1,1,1,4,11,11,11,11,44
22021,2202,1,1,1,1,4,11,11,11,11,44
22031,2203,1,1,1,0,3,11,11,11,12,45
22041,2204,1,1,1,0,3,11,11,11,12,45
22051,2205,1,1,1,0,3,11,11,11,12,45
30851,3085,1,1,1,1,4,11,11,11,11,44
30861,3086,1,1,1,1,4,11,11,11,11,44
30871,3087,1,1,1,1,4,11,11,11,11,44
30881,3088,1,1,1,1,4,11,11,11,11,44
30891,3089,1,1,1,1,4,11,11,11,11,44
30901,3090,1,1,1,1,4,11,11,11,11,44
30911,3091,1,1,1,1,4,11,11,11,11,44
30921,3092,1,1,1,1,4,11,11,11,11,44
30931,3093,1,1,1,1,4,11,11,11,11,44
30941,3094,1,1,1,1,4,11,11,11,11,44
30951,3095,1,1,1,1,4,11,11,11,11,44
30961,3096,1,1,1,1,4,11,11,11,11,44

HEAD ON COLLISIONS FOR B1
B1 bucket number,IP1,IP2,IP5,IP8
1,1,8911,1,-
3351,-,-,-,-
3361,-,-,-,-
3371,-,-,-,-
3381,-,-,-,-
3391,-,-,-,-
3401,-,-,-,-
3411,-,-,-,-
3421,-,-,-,-
3431,-,-,-,-
3441,-,-,-,-
3451,-,-,-,-
3461,-,-,-,-
4151,4151,-,4151,30851
4161,4161,-,4161,30861
4171,4171,-,4171,30871
4181,4181,13091,4181,30881
4191,4191,13101,4191,30891
4201,4201,13111,4201,30901
4211,4211,13121,4211,30911
4221,4221,13131,4221,30921
4231,4231,13141,4231,30931
4241,4241,13151,4241,30941
4251,4251,13161,4251,30951
4261,4261,13171,4261,30961
8911,8911,-,8911,-
8921,8921,-,8921,-
8931,8931,-,8931,-
8941,8941,17851,8941,1
8951,8951,17861,8951,-
8961,8961,17871,8961,-
8971,8971,17881,8971,-
8981,8981,17891,8981,-
8991,8991,17901,8991,-
9001,9001,17911,9001,-
9011,9011,17921,9011,-
9021,9021,17931,9021,-
13091,13091,22001,13091,4151
13101,13101,22011,13101,4161
13111,13111,22021,13111,4171
13121,13121,22031,13121,4181
13131,13131,22041,13131,4191
13141,13141,22051,13141,4201
13151,13151,-,13151,4211
13161,13161,-,13161,4221
13171,13171,-,13171,4231
13181,13181,-,13181,4241
13191,13191,-,13191,4251
13201,13201,-,13201,4261
17851,17851,-,17851,8911
17861,17861,-,17861,8921
17871,17871,-,17871,8931
17881,17881,-,17881,8941
17891,17891,-,17891,8951
17901,17901,-,17901,8961
17911,17911,-,17911,8971
17921,17921,-,17921,8981
17931,17931,-,17931,8991
17941,17941,-,17941,9001
17951,17951,-,17951,9011
17961,17961,-,17961,9021
21941,21941,30851,21941,-
21951,21951,30861,21951,-
21961,21961,30871,21961,-
21971,21971,30881,21971,-
21981,21981,30891,21981,-
21991,21991,30901,21991,-
22001,22001,30911,22001,-
22011,22011,30921,22011,-
22021,22021,30931,22021,-
22031,22031,30941,22031,13091
22041,22041,30951,22041,13101
22051,22051,30961,22051,13111
30851,30851,-,30851,-
30861,30861,-,30861,-
30871,30871,-,30871,-
30881,30881,4151,30881,21941
30891,30891,4161,30891,21951
30901,30901,4171,30901,21961
30911,30911,4181,30911,21971
30921,30921,4191,30921,21981
30931,30931,4201,30931,21991
30941,30941,4211,30941,22001
30951,30951,4221,30951,22011
30961,30961,4231,30961,22021

HEAD ON COLLISIONS FOR B2
B2 bucket number,IP1,IP2,IP5,IP8
1,1,-,1,8941
3661,-,-,-,-
3671,-,-,-,-
3681,-,-,-,-
3691,-,-,-,-
3701,-,-,-,-
3711,-,-,-,-
3721,-,-,-,-
3731,-,-,-,-
3741,-,-,-,-
3751,-,-,-,-
3761,-,-,-,-
3771,-,-,-,-
4151,4151,30881,4151,13091
4161,4161,30891,4161,13101
4171,4171,30901,4171,13111
4181,4181,30911,4181,13121
4191,4191,30921,4191,13131
4201,4201,30931,4201,13141
4211,4211,30941,4211,13151
4221,4221,30951,4221,13161
4231,4231,30961,4231,13171
4241,4241,-,4241,13181
4251,4251,-,4251,13191
4261,4261,-,4261,13201
8911,8911,1,8911,17851
8921,8921,-,8921,17861
8931,8931,-,8931,17871
8941,8941,-,8941,17881
8951,8951,-,8951,17891
8961,8961,-,8961,17901
8971,8971,-,8971,17911
8981,8981,-,8981,17921
8991,8991,-,8991,17931
9001,9001,-,9001,17941
9011,9011,-,9011,17951
9021,9021,-,9021,17961
13091,13091,4181,13091,22031
13101,13101,4191,13101,22041
13111,13111,4201,13111,22051
13121,13121,4211,13121,-
13131,13131,4221,13131,-
13141,13141,4231,13141,-
13151,13151,4241,13151,-
13161,13161,4251,13161,-
13171,13171,4261,13171,-
13181,13181,-,13181,-
13191,13191,-,13191,-
13201,13201,-,13201,-
17851,17851,8941,17851,-
17861,17861,8951,17861,-
17871,17871,8961,17871,-
17881,17881,8971,17881,-
17891,17891,8981,17891,-
17901,17901,8991,17901,-
17911,17911,9001,17911,-
17921,17921,9011,17921,-
17931,17931,9021,17931,-
17941,17941,-,17941,-
17951,17951,-,17951,-
17961,17961,-,17961,-
21941,21941,-,21941,30881
21951,21951,-,21951,30891
21961,21961,-,21961,30901
21971,21971,-,21971,30911
21981,21981,-,21981,30921
21991,21991,-,21991,30931
22001,22001,13091,22001,30941
22011,22011,13101,22011,30951
22021,22021,13111,22021,30961
22031,22031,13121,22031,-
22041,22041,13131,22041,-
22051,22051,13141,22051,-
30851,30851,21941,30851,4151
30861,30861,21951,30861,4161
30871,30871,21961,30871,4171
30881,30881,21971,30881,4181
30891,30891,21981,30891,4191
30901,30901,21991,30901,4201
30911,30911,22001,30911,4211
30921,30921,22011,30921,4221
30931,30931,22021,30931,4231
30941,30941,22031,30941,4241
30951,30951,22041,30951,4251
30961,30961,22051,30961,4261
