INJECTION SCHEME : Single_20b_10_10_9_1non_coll

idx,inj Nbr,	Ring,RF Bucket,Bu Spac (ns),bu per PS batch,SPS Batch spac,PSbatch nbr
1,	1,	ring_2,	1,		0,		1,		0,	1
2,	1,	ring_1,	1,		0,		1,		0,	1
3,	2,	ring_1,	811,		0,		1,		0,	1
4,	2,	ring_2,	811,		0,		1,		0,	1
5,	3,	ring_1,	2401,		0,		1,		0,	1
6,	3,	ring_2,	2401,		0,		1,		0,	1
7,	4,	ring_1,	3991,		0,		1,		0,	1
8,	4,	ring_2,	4021,		0,		1,		0,	1
9,	5,	ring_2,	5641,		0,		1,		0,	1
10,	6,	ring_2,	7261,		0,		1,		0,	1
11,	5,	ring_1,	8911,		0,		1,		0,	1
12,	7,	ring_2,	8911,		0,		1,		0,	1
13,	6,	ring_1,	9721,		0,		1,		0,	1
14,	8,	ring_2,	9721,		0,		1,		0,	1
15,	9,	ring_2,	11311,		0,		1,		0,	1
16,	7,	ring_1,	11341,		0,		1,		0,	1
17,	10,	ring_2,	12901,		0,		1,		0,	1
18,	8,	ring_1,	12961,		0,		1,		0,	1
19,	11,	ring_2,	14521,		0,		1,		0,	1
20,	9,	ring_1,	14581,		0,		1,		0,	1
21,	12,	ring_2,	16141,		0,		1,		0,	1
22,	10,	ring_1,	16201,		0,		1,		0,	1
23,	11,	ring_1,	17821,		0,		1,		0,	1
24,	13,	ring_2,	17821,		0,		1,		0,	1
25,	12,	ring_1,	18631,		0,		1,		0,	1
26,	14,	ring_2,	18631,		0,		1,		0,	1
27,	13,	ring_1,	20001,		0,		1,		0,	1
28,	15,	ring_2,	20221,		0,		1,		0,	1
29,	14,	ring_1,	21841,		0,		1,		0,	1
30,	16,	ring_2,	22231,		0,		1,		0,	1
31,	15,	ring_1,	23461,		0,		1,		0,	1
32,	17,	ring_2,	25001,		0,		1,		0,	1
33,	16,	ring_1,	25081,		0,		1,		0,	1
34,	17,	ring_1,	26731,		0,		1,		0,	1
35,	18,	ring_2,	26731,		0,		1,		0,	1
36,	18,	ring_1,	27541,		0,		1,		0,	1
37,	19,	ring_2,	27541,		0,		1,		0,	1
38,	19,	ring_1,	29161,		0,		1,		0,	1
39,	20,	ring_1,	31171,		0,		1,		0,	1
40,	20,	ring_2,	31171,		0,		1,		0,	1
Bu Spac : space in ns between bunches in the same PS train
SPS Batch Spac : space in ns between 2 first bunches of consecutive PS trains in the SPS

Tot number of B1 bunches(probe/Nominal) : 0/20
Tot number of B2 bunches(probe/Nominal) : 0/20

Tot number of B1 injections : 20
Tot number of B2 injections : 20

Collisions at IP1&5: 10
B1-empty at IP1&5: 10
B2-empty at IP1&5: 10
Empty-empty at IP1&5: 3534

Collisions at IP2: 10
B1-empty at IP2: 10
B2-empty at IP2: 10
Empty-empty at IP2: 3534

Collisions at IP8: 9
B1-empty at IP8: 11
B2-empty at IP8: 11
Empty-empty at IP8: 3533

LONG RANGE COLL IN IR1
RFbucketbeam1,RFbucketbeam2,z-pos/m
25081,25001,-29.95
12961,12901,-22.46
14581,14521,-22.46
16201,16141,-22.46
11341,11311,-11.23
1,1,0
811,811,0
2401,2401,0
8911,8911,0
9721,9721,0
17821,17821,0
18631,18631,0
26731,26731,0
27541,27541,0
31171,31171,0
3991,4021,11.23

LONG RANGE COLL IN IR2
RFbucketbeam1,RFbucketbeam2,z-pos/m
16201,25001,-41.18
11341,20221,-11.23
29161,2401,-11.23
1,8911,0
811,9721,0
2401,11311,0
3991,12901,0
8911,17821,0
9721,18631,0
17821,26731,0
18631,27541,0
26731,1,0
27541,811,0

LONG RANGE COLL IN IR5
RFbucketbeam1,RFbucketbeam2,z-pos/m
25081,25001,-29.95
12961,12901,-22.46
14581,14521,-22.46
16201,16141,-22.46
11341,11311,-11.23
1,1,0
811,811,0
2401,2401,0
8911,8911,0
9721,9721,0
17821,17821,0
18631,18631,0
26731,26731,0
27541,27541,0
31171,31171,0
3991,4021,11.23

LONG RANGE COLL IN IR8
RFbucketbeam1,RFbucketbeam2,z-pos/m
11341,2401,0
12961,4021,0
14581,5641,0
16201,7261,0
21841,12901,0
23461,14521,0
25081,16141,0
29161,20221,0
31171,22231,0
1,26731,11.23
811,27541,11.23
8911,1,11.23
9721,811,11.23
17821,8911,11.23
18631,9721,11.23
26731,17821,11.23
27541,18631,11.23


LONG RANGE FOR BEAM 1
RFbucket,Slot,Head-On IP1,Head-On IP2,Head-On IP5,Head-On IP8,Head-On Tot,LR IP1,LR IP2,LR IP5,LR IP8,LR Tot
1,0,1,1,1,0,3,0,0,0,1,1
811,81,1,1,1,0,3,0,0,0,1,1
2401,240,1,1,1,0,3,0,0,0,0,0
3991,399,0,1,0,0,1,1,0,1,0,2
8911,891,1,1,1,0,3,0,0,0,1,1
9721,972,1,1,1,0,3,0,0,0,1,1
11341,1134,0,0,0,1,1,1,1,1,0,3
12961,1296,0,0,0,1,1,1,0,1,0,2
14581,1458,0,0,0,1,1,1,0,1,0,2
16201,1620,0,0,0,1,1,1,1,1,0,3
17821,1782,1,1,1,0,3,0,0,0,1,1
18631,1863,1,1,1,0,3,0,0,0,1,1
20001,2000,0,0,0,0,0,0,0,0,0,0
21841,2184,0,0,0,1,1,0,0,0,0,0
23461,2346,0,0,0,1,1,0,0,0,0,0
25081,2508,0,0,0,1,1,1,0,1,0,2
26731,2673,1,1,1,0,3,0,0,0,1,1
27541,2754,1,1,1,0,3,0,0,0,1,1
29161,2916,0,0,0,1,1,0,1,0,0,1
31171,3117,1,0,1,1,3,0,0,0,0,0

LONG RANGE FOR BEAM 2
RFbucket,Slot,Head-On IP1,Head-On IP2,Head-On IP5,Head-On IP8,Head-On Tot,LR IP1,LR IP2,LR IP5,LR IP8,LR Tot
1,0,1,1,1,0,3,0,0,0,1,1
811,81,1,1,1,0,3,0,0,0,1,1
2401,240,1,0,1,1,3,0,1,0,0,1
4021,402,0,0,0,1,1,1,0,1,0,2
5641,564,0,0,0,1,1,0,0,0,0,0
7261,726,0,0,0,1,1,0,0,0,0,0
8911,891,1,1,1,0,3,0,0,0,1,1
9721,972,1,1,1,0,3,0,0,0,1,1
11311,1131,0,1,0,0,1,1,0,1,0,2
12901,1290,0,1,0,1,2,1,0,1,0,2
14521,1452,0,0,0,1,1,1,0,1,0,2
16141,1614,0,0,0,1,1,1,0,1,0,2
17821,1782,1,1,1,0,3,0,0,0,1,1
18631,1863,1,1,1,0,3,0,0,0,1,1
20221,2022,0,0,0,1,1,0,1,0,0,1
22231,2223,0,0,0,1,1,0,0,0,0,0
25001,2500,0,0,0,0,0,1,1,1,0,3
26731,2673,1,1,1,0,3,0,0,0,1,1
27541,2754,1,1,1,0,3,0,0,0,1,1
31171,3117,1,0,1,0,2,0,0,0,0,0

HEAD ON COLLISIONS FOR B1
B1 bucket number,IP1,IP2,IP5,IP8
1,1,8911,1,-
811,811,9721,811,-
2401,2401,11311,2401,-
3991,-,12901,-,-
8911,8911,17821,8911,-
9721,9721,18631,9721,-
11341,-,-,-,2401
12961,-,-,-,4021
14581,-,-,-,5641
16201,-,-,-,7261
17821,17821,26731,17821,-
18631,18631,27541,18631,-
20001,-,-,-,-
21841,-,-,-,12901
23461,-,-,-,14521
25081,-,-,-,16141
26731,26731,1,26731,-
27541,27541,811,27541,-
29161,-,-,-,20221
31171,31171,-,31171,22231

HEAD ON COLLISIONS FOR B2
B2 bucket number,IP1,IP2,IP5,IP8
1,1,26731,1,-
811,811,27541,811,-
2401,2401,-,2401,11341
4021,-,-,-,12961
5641,-,-,-,14581
7261,-,-,-,16201
8911,8911,1,8911,-
9721,9721,811,9721,-
11311,-,2401,-,-
12901,-,3991,-,21841
14521,-,-,-,23461
16141,-,-,-,25081
17821,17821,8911,17821,-
18631,18631,9721,18631,-
20221,-,-,-,29161
22231,-,-,-,31171
25001,-,-,-,-
26731,26731,17821,26731,-
27541,27541,18631,27541,-
31171,31171,-,31171,-
