INJECTION SCHEME : Multi_7b_6_0_0_lowE_highBeta

idx,inj Nbr,	Ring,RF Bucket,Bu Spac (ns),bu per PS batch,SPS Batch spac,PSbatch nbr
1,	1,	ring_1,	101,		0,		1,		0,	1
2,	1,	ring_2,	101,		0,		1,		0,	1
3,	2,	ring_1,	4611,		0,		1,		0,	1
4,	2,	ring_2,	5191,		0,		1,		0,	1
5,	3,	ring_1,	10181,		0,		1,		0,	1
6,	3,	ring_2,	10181,		0,		1,		0,	1
7,	4,	ring_1,	15401,		0,		1,		0,	1
8,	4,	ring_2,	15401,		0,		1,		0,	1
9,	5,	ring_1,	20661,		0,		1,		0,	1
10,	5,	ring_2,	20661,		0,		1,		0,	1
11,	6,	ring_1,	25541,		0,		1,		0,	1
12,	6,	ring_2,	25541,		0,		1,		0,	1
13,	7,	ring_1,	30331,		0,		1,		0,	1
14,	7,	ring_2,	30331,		0,		1,		0,	1
Bu Spac : space in ns between bunches in the same PS train
SPS Batch Spac : space in ns between 2 first bunches of consecutive PS trains in the SPS

Tot number of B1 bunches(probe/Nominal) : 0/7
Tot number of B2 bunches(probe/Nominal) : 0/7

Tot number of B1 injections : 7
Tot number of B2 injections : 7

Collisions at IP1&5: 6
B1-empty at IP1&5: 1
B2-empty at IP1&5: 1
Empty-empty at IP1&5: 3556

Collisions at IP2: 0
B1-empty at IP2: 7
B2-empty at IP2: 7
Empty-empty at IP2: 3550

Collisions at IP8: 0
B1-empty at IP8: 7
B2-empty at IP8: 7
Empty-empty at IP8: 3550

LONG RANGE COLL IN IRIP1
RFbucketbeam1,RFbucketbeam2,z-pos/m
101,101,0
10181,10181,0
15401,15401,0
20661,20661,0
25541,25541,0
30331,30331,0

LONG RANGE COLL IN IRIP2
RFbucketbeam1,RFbucketbeam2,z-pos/m

LONG RANGE COLL IN IRIP5
RFbucketbeam1,RFbucketbeam2,z-pos/m
101,101,0
10181,10181,0
15401,15401,0
20661,20661,0
25541,25541,0
30331,30331,0

LONG RANGE COLL IN IRIP8
RFbucketbeam1,RFbucketbeam2,z-pos/m


LONG RANGE FOR BEAM 1
RFbucket,Slot,Head-On IP1,Head-On IP2,Head-On IP5,Head-On IP8,Head-On Tot,LR IP1,LR IP2,LR IP5,LR IP8,LR Tot
101,10,1,0,1,0,2,0,0,0,0,0
4611,461,0,0,0,0,0,0,0,0,0,0
10181,1018,1,0,1,0,2,0,0,0,0,0
15401,1540,1,0,1,0,2,0,0,0,0,0
20661,2066,1,0,1,0,2,0,0,0,0,0
25541,2554,1,0,1,0,2,0,0,0,0,0
30331,3033,1,0,1,0,2,0,0,0,0,0

LONG RANGE FOR BEAM 2
RFbucket,Slot,Head-On IP1,Head-On IP2,Head-On IP5,Head-On IP8,Head-On Tot,LR IP1,LR IP2,LR IP5,LR IP8,LR Tot
101,10,1,0,1,0,2,0,0,0,0,0
5191,519,0,0,0,0,0,0,0,0,0,0
10181,1018,1,0,1,0,2,0,0,0,0,0
15401,1540,1,0,1,0,2,0,0,0,0,0
20661,2066,1,0,1,0,2,0,0,0,0,0
25541,2554,1,0,1,0,2,0,0,0,0,0
30331,3033,1,0,1,0,2,0,0,0,0,0

HEAD ON COLLISIONS FOR B1
B1 bucket number,IP1,IP2,IP5,IP8
101,101,-,101,-
4611,-,-,-,-
10181,10181,-,10181,-
15401,15401,-,15401,-
20661,20661,-,20661,-
25541,25541,-,25541,-
30331,30331,-,30331,-

HEAD ON COLLISIONS FOR B2
B2 bucket number,IP1,IP2,IP5,IP8
101,101,-,101,-
5191,-,-,-,-
10181,10181,-,10181,-
15401,15401,-,15401,-
20661,20661,-,20661,-
25541,25541,-,25541,-
30331,30331,-,30331,-
