INJECTION SCHEME : 25ns_36bpi_Quench_IR7_2015_2

idx,inj Nbr,	Ring,RF Bucket,Bu Spac (ns),bu per PS batch,SPS Batch spac,PSbatch nbr,bu Int[1e9p]
1,	1,	ring_1,	1,		0,		1,		0,	1,	150
2,	1,	ring_2,	1,		0,		1,		0,	1,	150
3,	2,	ring_1,	1501,		0,		1,		0,	1,	150
4,	2,	ring_2,	1501,		0,		1,		0,	1,	150
5,	3,	ring_1,	5001,		0,		1,		0,	1,	150
6,	3,	ring_2,	5001,		0,		1,		0,	1,	150
7,	4,	ring_1,	7201,		0,		1,		0,	1,	80
8,	4,	ring_2,	7201,		0,		1,		0,	1,	80
9,	5,	ring_1,	8821,		25,		12,		0,	1,	80
10,	5,	ring_2,	8821,		25,		12,		0,	1,	80
11,	6,	ring_2,	13361,		25,		36,		0,	1,	80
12,	7,	ring_2,	15361,		25,		36,		0,	1,	80
13,	8,	ring_2,	20001,		25,		36,		0,	1,	80
14,	9,	ring_2,	21561,		25,		36,		0,	1,	80
15,	10,	ring_2,	23121,		25,		36,		0,	1,	80
16,	11,	ring_2,	24681,		25,		36,		0,	1,	80
17,	12,	ring_2,	28001,		25,		36,		0,	1,	80
Bu Spac : space in ns between bunches in the same PS train
SPS Batch Spac : space in ns between 2 first bunches of consecutive PS trains in the SPS

Tot number of B1 bunches(probe/Nominal) : 0/16
Tot number of B2 bunches(probe/Nominal) : 0/16

Tot number of B1 injections : 5
Tot number of B2 injections : 12

Collisions at IP1&5 : 0
B1-empty at IP1&5 : 16
B2-empty at IP1&5 : 268
Empty-empty at IP1&5 : 3280

Collisions at IP2 : 0
B1-empty at IP2 : 16
B2-empty at IP2 : 268
Empty-empty at IP2 : 3280

Collisions at IP8 : 0
B1-empty at IP8 : 16
B2-empty at IP8 : 268
Empty-empty at IP8 : 3280

IR1
RFbucketbeam1,RFbucketbeam2,z-pos/m
8931,8821,-41.18
8921,8821,-37.43
8931,8831,-37.43
8911,8821,-33.69
8921,8831,-33.69
8931,8841,-33.69
8901,8821,-29.95
8911,8831,-29.95
8921,8841,-29.95
8931,8851,-29.95
8891,8821,-26.2
8901,8831,-26.2
8911,8841,-26.2
8921,8851,-26.2
8931,8861,-26.2
8881,8821,-22.46
8891,8831,-22.46
8901,8841,-22.46
8911,8851,-22.46
8921,8861,-22.46
8931,8871,-22.46
8871,8821,-18.72
8881,8831,-18.72
8891,8841,-18.72
8901,8851,-18.72
8911,8861,-18.72
8921,8871,-18.72
8931,8881,-18.72
8861,8821,-14.97
8871,8831,-14.97
8881,8841,-14.97
8891,8851,-14.97
8901,8861,-14.97
8911,8871,-14.97
8921,8881,-14.97
8931,8891,-14.97
8851,8821,-11.23
8861,8831,-11.23
8871,8841,-11.23
8881,8851,-11.23
8891,8861,-11.23
8901,8871,-11.23
8911,8881,-11.23
8921,8891,-11.23
8931,8901,-11.23
8841,8821,-7.49
8851,8831,-7.49
8861,8841,-7.49
8871,8851,-7.49
8881,8861,-7.49
8891,8871,-7.49
8901,8881,-7.49
8911,8891,-7.49
8921,8901,-7.49
8931,8911,-7.49
8831,8821,-3.74
8841,8831,-3.74
8851,8841,-3.74
8861,8851,-3.74
8871,8861,-3.74
8881,8871,-3.74
8891,8881,-3.74
8901,8891,-3.74
8911,8901,-3.74
8921,8911,-3.74
8931,8921,-3.74
1,1,0
1501,1501,0
5001,5001,0
7201,7201,0
8821,8821,0
8831,8831,0
8841,8841,0
8851,8851,0
8861,8861,0
8871,8871,0
8881,8881,0
8891,8891,0
8901,8901,0
8911,8911,0
8921,8921,0
8931,8931,0
8821,8831,3.74
8831,8841,3.74
8841,8851,3.74
8851,8861,3.74
8861,8871,3.74
8871,8881,3.74
8881,8891,3.74
8891,8901,3.74
8901,8911,3.74
8911,8921,3.74
8921,8931,3.74
8821,8841,7.49
8831,8851,7.49
8841,8861,7.49
8851,8871,7.49
8861,8881,7.49
8871,8891,7.49
8881,8901,7.49
8891,8911,7.49
8901,8921,7.49
8911,8931,7.49
8821,8851,11.23
8831,8861,11.23
8841,8871,11.23
8851,8881,11.23
8861,8891,11.23
8871,8901,11.23
8881,8911,11.23
8891,8921,11.23
8901,8931,11.23
8821,8861,14.97
8831,8871,14.97
8841,8881,14.97
8851,8891,14.97
8861,8901,14.97
8871,8911,14.97
8881,8921,14.97
8891,8931,14.97
8821,8871,18.72
8831,8881,18.72
8841,8891,18.72
8851,8901,18.72
8861,8911,18.72
8871,8921,18.72
8881,8931,18.72
8821,8881,22.46
8831,8891,22.46
8841,8901,22.46
8851,8911,22.46
8861,8921,22.46
8871,8931,22.46
8821,8891,26.2
8831,8901,26.2
8841,8911,26.2
8851,8921,26.2
8861,8931,26.2
8821,8901,29.95
8831,8911,29.95
8841,8921,29.95
8851,8931,29.95
8821,8911,33.69
8831,8921,33.69
8841,8931,33.69
8821,8921,37.43
8831,8931,37.43
8821,8931,41.18

IR2
RFbucketbeam1,RFbucketbeam2,z-pos/m
1,8821,-33.69
1,8831,-29.95
1,8841,-26.2
1,8851,-22.46
1,8861,-18.72
1,8871,-14.97
1,8881,-11.23
1,8891,-7.49
1,8901,-3.74
1,8911,0
1,8921,3.74
1,8931,7.49

IR5
RFbucketbeam1,RFbucketbeam2,z-pos/m
8931,8821,-41.18
8921,8821,-37.43
8931,8831,-37.43
8911,8821,-33.69
8921,8831,-33.69
8931,8841,-33.69
8901,8821,-29.95
8911,8831,-29.95
8921,8841,-29.95
8931,8851,-29.95
8891,8821,-26.2
8901,8831,-26.2
8911,8841,-26.2
8921,8851,-26.2
8931,8861,-26.2
8881,8821,-22.46
8891,8831,-22.46
8901,8841,-22.46
8911,8851,-22.46
8921,8861,-22.46
8931,8871,-22.46
8871,8821,-18.72
8881,8831,-18.72
8891,8841,-18.72
8901,8851,-18.72
8911,8861,-18.72
8921,8871,-18.72
8931,8881,-18.72
8861,8821,-14.97
8871,8831,-14.97
8881,8841,-14.97
8891,8851,-14.97
8901,8861,-14.97
8911,8871,-14.97
8921,8881,-14.97
8931,8891,-14.97
8851,8821,-11.23
8861,8831,-11.23
8871,8841,-11.23
8881,8851,-11.23
8891,8861,-11.23
8901,8871,-11.23
8911,8881,-11.23
8921,8891,-11.23
8931,8901,-11.23
8841,8821,-7.49
8851,8831,-7.49
8861,8841,-7.49
8871,8851,-7.49
8881,8861,-7.49
8891,8871,-7.49
8901,8881,-7.49
8911,8891,-7.49
8921,8901,-7.49
8931,8911,-7.49
8831,8821,-3.74
8841,8831,-3.74
8851,8841,-3.74
8861,8851,-3.74
8871,8861,-3.74
8881,8871,-3.74
8891,8881,-3.74
8901,8891,-3.74
8911,8901,-3.74
8921,8911,-3.74
8931,8921,-3.74
1,1,0
1501,1501,0
5001,5001,0
7201,7201,0
8821,8821,0
8831,8831,0
8841,8841,0
8851,8851,0
8861,8861,0
8871,8871,0
8881,8881,0
8891,8891,0
8901,8901,0
8911,8911,0
8921,8921,0
8931,8931,0
8821,8831,3.74
8831,8841,3.74
8841,8851,3.74
8851,8861,3.74
8861,8871,3.74
8871,8881,3.74
8881,8891,3.74
8891,8901,3.74
8901,8911,3.74
8911,8921,3.74
8921,8931,3.74
8821,8841,7.49
8831,8851,7.49
8841,8861,7.49
8851,8871,7.49
8861,8881,7.49
8871,8891,7.49
8881,8901,7.49
8891,8911,7.49
8901,8921,7.49
8911,8931,7.49
8821,8851,11.23
8831,8861,11.23
8841,8871,11.23
8851,8881,11.23
8861,8891,11.23
8871,8901,11.23
8881,8911,11.23
8891,8921,11.23
8901,8931,11.23
8821,8861,14.97
8831,8871,14.97
8841,8881,14.97
8851,8891,14.97
8861,8901,14.97
8871,8911,14.97
8881,8921,14.97
8891,8931,14.97
8821,8871,18.72
8831,8881,18.72
8841,8891,18.72
8851,8901,18.72
8861,8911,18.72
8871,8921,18.72
8881,8931,18.72
8821,8881,22.46
8831,8891,22.46
8841,8901,22.46
8851,8911,22.46
8861,8921,22.46
8871,8931,22.46
8821,8891,26.2
8831,8901,26.2
8841,8911,26.2
8851,8921,26.2
8861,8931,26.2
8821,8901,29.95
8831,8911,29.95
8841,8921,29.95
8851,8931,29.95
8821,8911,33.69
8831,8921,33.69
8841,8931,33.69
8821,8921,37.43
8831,8931,37.43
8821,8931,41.18

IR8
RFbucketbeam1,RFbucketbeam2,z-pos/m
1501,28031,-63.64
1501,28041,-59.89
1501,28051,-56.15
1501,28061,-52.41
1501,28071,-48.66
1501,28081,-44.92
1501,28091,-41.18
1501,28101,-37.43
1501,28111,-33.69
1501,28121,-29.95
1501,28131,-26.2
1501,28141,-22.46
1501,28151,-18.72
1501,28161,-14.97
1501,28171,-11.23
1501,28181,-7.49
1501,28191,-3.74
1501,28201,0
1501,28211,3.74
8931,1,3.74
1501,28221,7.49
8921,1,7.49
1501,28231,11.23
8911,1,11.23
1501,28241,14.97
8901,1,14.97
1501,28251,18.72
8891,1,18.72
1501,28261,22.46
8881,1,22.46
1501,28271,26.2
8871,1,26.2
1501,28281,29.95
8861,1,29.95
1501,28291,33.69
8851,1,33.69
1501,28301,37.43
8841,1,37.43
1501,28311,41.18
8831,1,41.18
1501,28321,44.92
8821,1,44.92
1501,28331,48.66
1501,28341,52.41
1501,28351,56.15

BEAM 1
RFbucket,Slot,Head-On IP1,Head-On IP2,Head-On IP5,Head-On IP8,Head-On Tot,LR IP1,LR IP2,LR IP5,LR IP8,LR Tot
1,0,1,1,1,0,3,0,11,0,0,11
1501,150,1,0,1,1,3,0,0,0,32,32
5001,500,1,0,1,0,2,0,0,0,0,0
7201,720,1,0,1,0,2,0,0,0,0,0
8821,882,1,0,1,0,2,11,0,11,1,23
8831,883,1,0,1,0,2,11,0,11,1,23
8841,884,1,0,1,0,2,11,0,11,1,23
8851,885,1,0,1,0,2,11,0,11,1,23
8861,886,1,0,1,0,2,11,0,11,1,23
8871,887,1,0,1,0,2,11,0,11,1,23
8881,888,1,0,1,0,2,11,0,11,1,23
8891,889,1,0,1,0,2,11,0,11,1,23
8901,890,1,0,1,0,2,11,0,11,1,23
8911,891,1,0,1,0,2,11,0,11,1,23
8921,892,1,0,1,0,2,11,0,11,1,23
8931,893,1,0,1,0,2,11,0,11,1,23

BEAM 2
RFbucket,Slot,Head-On IP1,Head-On IP2,Head-On IP5,Head-On IP8,Head-On Tot,LR IP1,LR IP2,LR IP5,LR IP8,LR Tot
1,0,1,0,1,0,2,0,0,0,12,12
1501,150,1,0,1,0,2,0,0,0,0,0
5001,500,1,0,1,0,2,0,0,0,0,0
7201,720,1,0,1,0,2,0,0,0,0,0
8821,882,1,0,1,0,2,11,1,11,0,23
8831,883,1,0,1,0,2,11,1,11,0,23
8841,884,1,0,1,0,2,11,1,11,0,23
8851,885,1,0,1,0,2,11,1,11,0,23
8861,886,1,0,1,0,2,11,1,11,0,23
8871,887,1,0,1,0,2,11,1,11,0,23
8881,888,1,0,1,0,2,11,1,11,0,23
8891,889,1,0,1,0,2,11,1,11,0,23
8901,890,1,0,1,0,2,11,1,11,0,23
8911,891,1,1,1,0,3,11,0,11,0,22
8921,892,1,0,1,0,2,11,1,11,0,23
8931,893,1,0,1,0,2,11,1,11,0,23
13361,1336,0,0,0,0,0,0,0,0,0,0
13371,1337,0,0,0,0,0,0,0,0,0,0
13381,1338,0,0,0,0,0,0,0,0,0,0
13391,1339,0,0,0,0,0,0,0,0,0,0
13401,1340,0,0,0,0,0,0,0,0,0,0
13411,1341,0,0,0,0,0,0,0,0,0,0
13421,1342,0,0,0,0,0,0,0,0,0,0
13431,1343,0,0,0,0,0,0,0,0,0,0
13441,1344,0,0,0,0,0,0,0,0,0,0
13451,1345,0,0,0,0,0,0,0,0,0,0
13461,1346,0,0,0,0,0,0,0,0,0,0
13471,1347,0,0,0,0,0,0,0,0,0,0
13481,1348,0,0,0,0,0,0,0,0,0,0
13491,1349,0,0,0,0,0,0,0,0,0,0
13501,1350,0,0,0,0,0,0,0,0,0,0
13511,1351,0,0,0,0,0,0,0,0,0,0
13521,1352,0,0,0,0,0,0,0,0,0,0
13531,1353,0,0,0,0,0,0,0,0,0,0
13541,1354,0,0,0,0,0,0,0,0,0,0
13551,1355,0,0,0,0,0,0,0,0,0,0
13561,1356,0,0,0,0,0,0,0,0,0,0
13571,1357,0,0,0,0,0,0,0,0,0,0
13581,1358,0,0,0,0,0,0,0,0,0,0
13591,1359,0,0,0,0,0,0,0,0,0,0
13601,1360,0,0,0,0,0,0,0,0,0,0
13611,1361,0,0,0,0,0,0,0,0,0,0
13621,1362,0,0,0,0,0,0,0,0,0,0
13631,1363,0,0,0,0,0,0,0,0,0,0
13641,1364,0,0,0,0,0,0,0,0,0,0
13651,1365,0,0,0,0,0,0,0,0,0,0
13661,1366,0,0,0,0,0,0,0,0,0,0
13671,1367,0,0,0,0,0,0,0,0,0,0
13681,1368,0,0,0,0,0,0,0,0,0,0
13691,1369,0,0,0,0,0,0,0,0,0,0
13701,1370,0,0,0,0,0,0,0,0,0,0
13711,1371,0,0,0,0,0,0,0,0,0,0
15361,1536,0,0,0,0,0,0,0,0,0,0
15371,1537,0,0,0,0,0,0,0,0,0,0
15381,1538,0,0,0,0,0,0,0,0,0,0
15391,1539,0,0,0,0,0,0,0,0,0,0
15401,1540,0,0,0,0,0,0,0,0,0,0
15411,1541,0,0,0,0,0,0,0,0,0,0
15421,1542,0,0,0,0,0,0,0,0,0,0
15431,1543,0,0,0,0,0,0,0,0,0,0
15441,1544,0,0,0,0,0,0,0,0,0,0
15451,1545,0,0,0,0,0,0,0,0,0,0
15461,1546,0,0,0,0,0,0,0,0,0,0
15471,1547,0,0,0,0,0,0,0,0,0,0
15481,1548,0,0,0,0,0,0,0,0,0,0
15491,1549,0,0,0,0,0,0,0,0,0,0
15501,1550,0,0,0,0,0,0,0,0,0,0
15511,1551,0,0,0,0,0,0,0,0,0,0
15521,1552,0,0,0,0,0,0,0,0,0,0
15531,1553,0,0,0,0,0,0,0,0,0,0
15541,1554,0,0,0,0,0,0,0,0,0,0
15551,1555,0,0,0,0,0,0,0,0,0,0
15561,1556,0,0,0,0,0,0,0,0,0,0
15571,1557,0,0,0,0,0,0,0,0,0,0
15581,1558,0,0,0,0,0,0,0,0,0,0
15591,1559,0,0,0,0,0,0,0,0,0,0
15601,1560,0,0,0,0,0,0,0,0,0,0
15611,1561,0,0,0,0,0,0,0,0,0,0
15621,1562,0,0,0,0,0,0,0,0,0,0
15631,1563,0,0,0,0,0,0,0,0,0,0
15641,1564,0,0,0,0,0,0,0,0,0,0
15651,1565,0,0,0,0,0,0,0,0,0,0
15661,1566,0,0,0,0,0,0,0,0,0,0
15671,1567,0,0,0,0,0,0,0,0,0,0
15681,1568,0,0,0,0,0,0,0,0,0,0
15691,1569,0,0,0,0,0,0,0,0,0,0
15701,1570,0,0,0,0,0,0,0,0,0,0
15711,1571,0,0,0,0,0,0,0,0,0,0
20001,2000,0,0,0,0,0,0,0,0,0,0
20011,2001,0,0,0,0,0,0,0,0,0,0
20021,2002,0,0,0,0,0,0,0,0,0,0
20031,2003,0,0,0,0,0,0,0,0,0,0
20041,2004,0,0,0,0,0,0,0,0,0,0
20051,2005,0,0,0,0,0,0,0,0,0,0
20061,2006,0,0,0,0,0,0,0,0,0,0
20071,2007,0,0,0,0,0,0,0,0,0,0
20081,2008,0,0,0,0,0,0,0,0,0,0
20091,2009,0,0,0,0,0,0,0,0,0,0
20101,2010,0,0,0,0,0,0,0,0,0,0
20111,2011,0,0,0,0,0,0,0,0,0,0
20121,2012,0,0,0,0,0,0,0,0,0,0
20131,2013,0,0,0,0,0,0,0,0,0,0
20141,2014,0,0,0,0,0,0,0,0,0,0
20151,2015,0,0,0,0,0,0,0,0,0,0
20161,2016,0,0,0,0,0,0,0,0,0,0
20171,2017,0,0,0,0,0,0,0,0,0,0
20181,2018,0,0,0,0,0,0,0,0,0,0
20191,2019,0,0,0,0,0,0,0,0,0,0
20201,2020,0,0,0,0,0,0,0,0,0,0
20211,2021,0,0,0,0,0,0,0,0,0,0
20221,2022,0,0,0,0,0,0,0,0,0,0
20231,2023,0,0,0,0,0,0,0,0,0,0
20241,2024,0,0,0,0,0,0,0,0,0,0
20251,2025,0,0,0,0,0,0,0,0,0,0
20261,2026,0,0,0,0,0,0,0,0,0,0
20271,2027,0,0,0,0,0,0,0,0,0,0
20281,2028,0,0,0,0,0,0,0,0,0,0
20291,2029,0,0,0,0,0,0,0,0,0,0
20301,2030,0,0,0,0,0,0,0,0,0,0
20311,2031,0,0,0,0,0,0,0,0,0,0
20321,2032,0,0,0,0,0,0,0,0,0,0
20331,2033,0,0,0,0,0,0,0,0,0,0
20341,2034,0,0,0,0,0,0,0,0,0,0
20351,2035,0,0,0,0,0,0,0,0,0,0
21561,2156,0,0,0,0,0,0,0,0,0,0
21571,2157,0,0,0,0,0,0,0,0,0,0
21581,2158,0,0,0,0,0,0,0,0,0,0
21591,2159,0,0,0,0,0,0,0,0,0,0
21601,2160,0,0,0,0,0,0,0,0,0,0
21611,2161,0,0,0,0,0,0,0,0,0,0
21621,2162,0,0,0,0,0,0,0,0,0,0
21631,2163,0,0,0,0,0,0,0,0,0,0
21641,2164,0,0,0,0,0,0,0,0,0,0
21651,2165,0,0,0,0,0,0,0,0,0,0
21661,2166,0,0,0,0,0,0,0,0,0,0
21671,2167,0,0,0,0,0,0,0,0,0,0
21681,2168,0,0,0,0,0,0,0,0,0,0
21691,2169,0,0,0,0,0,0,0,0,0,0
21701,2170,0,0,0,0,0,0,0,0,0,0
21711,2171,0,0,0,0,0,0,0,0,0,0
21721,2172,0,0,0,0,0,0,0,0,0,0
21731,2173,0,0,0,0,0,0,0,0,0,0
21741,2174,0,0,0,0,0,0,0,0,0,0
21751,2175,0,0,0,0,0,0,0,0,0,0
21761,2176,0,0,0,0,0,0,0,0,0,0
21771,2177,0,0,0,0,0,0,0,0,0,0
21781,2178,0,0,0,0,0,0,0,0,0,0
21791,2179,0,0,0,0,0,0,0,0,0,0
21801,2180,0,0,0,0,0,0,0,0,0,0
21811,2181,0,0,0,0,0,0,0,0,0,0
21821,2182,0,0,0,0,0,0,0,0,0,0
21831,2183,0,0,0,0,0,0,0,0,0,0
21841,2184,0,0,0,0,0,0,0,0,0,0
21851,2185,0,0,0,0,0,0,0,0,0,0
21861,2186,0,0,0,0,0,0,0,0,0,0
21871,2187,0,0,0,0,0,0,0,0,0,0
21881,2188,0,0,0,0,0,0,0,0,0,0
21891,2189,0,0,0,0,0,0,0,0,0,0
21901,2190,0,0,0,0,0,0,0,0,0,0
21911,2191,0,0,0,0,0,0,0,0,0,0
23121,2312,0,0,0,0,0,0,0,0,0,0
23131,2313,0,0,0,0,0,0,0,0,0,0
23141,2314,0,0,0,0,0,0,0,0,0,0
23151,2315,0,0,0,0,0,0,0,0,0,0
23161,2316,0,0,0,0,0,0,0,0,0,0
23171,2317,0,0,0,0,0,0,0,0,0,0
23181,2318,0,0,0,0,0,0,0,0,0,0
23191,2319,0,0,0,0,0,0,0,0,0,0
23201,2320,0,0,0,0,0,0,0,0,0,0
23211,2321,0,0,0,0,0,0,0,0,0,0
23221,2322,0,0,0,0,0,0,0,0,0,0
23231,2323,0,0,0,0,0,0,0,0,0,0
23241,2324,0,0,0,0,0,0,0,0,0,0
23251,2325,0,0,0,0,0,0,0,0,0,0
23261,2326,0,0,0,0,0,0,0,0,0,0
23271,2327,0,0,0,0,0,0,0,0,0,0
23281,2328,0,0,0,0,0,0,0,0,0,0
23291,2329,0,0,0,0,0,0,0,0,0,0
23301,2330,0,0,0,0,0,0,0,0,0,0
23311,2331,0,0,0,0,0,0,0,0,0,0
23321,2332,0,0,0,0,0,0,0,0,0,0
23331,2333,0,0,0,0,0,0,0,0,0,0
23341,2334,0,0,0,0,0,0,0,0,0,0
23351,2335,0,0,0,0,0,0,0,0,0,0
23361,2336,0,0,0,0,0,0,0,0,0,0
23371,2337,0,0,0,0,0,0,0,0,0,0
23381,2338,0,0,0,0,0,0,0,0,0,0
23391,2339,0,0,0,0,0,0,0,0,0,0
23401,2340,0,0,0,0,0,0,0,0,0,0
23411,2341,0,0,0,0,0,0,0,0,0,0
23421,2342,0,0,0,0,0,0,0,0,0,0
23431,2343,0,0,0,0,0,0,0,0,0,0
23441,2344,0,0,0,0,0,0,0,0,0,0
23451,2345,0,0,0,0,0,0,0,0,0,0
23461,2346,0,0,0,0,0,0,0,0,0,0
23471,2347,0,0,0,0,0,0,0,0,0,0
24681,2468,0,0,0,0,0,0,0,0,0,0
24691,2469,0,0,0,0,0,0,0,0,0,0
24701,2470,0,0,0,0,0,0,0,0,0,0
24711,2471,0,0,0,0,0,0,0,0,0,0
24721,2472,0,0,0,0,0,0,0,0,0,0
24731,2473,0,0,0,0,0,0,0,0,0,0
24741,2474,0,0,0,0,0,0,0,0,0,0
24751,2475,0,0,0,0,0,0,0,0,0,0
24761,2476,0,0,0,0,0,0,0,0,0,0
24771,2477,0,0,0,0,0,0,0,0,0,0
24781,2478,0,0,0,0,0,0,0,0,0,0
24791,2479,0,0,0,0,0,0,0,0,0,0
24801,2480,0,0,0,0,0,0,0,0,0,0
24811,2481,0,0,0,0,0,0,0,0,0,0
24821,2482,0,0,0,0,0,0,0,0,0,0
24831,2483,0,0,0,0,0,0,0,0,0,0
24841,2484,0,0,0,0,0,0,0,0,0,0
24851,2485,0,0,0,0,0,0,0,0,0,0
24861,2486,0,0,0,0,0,0,0,0,0,0
24871,2487,0,0,0,0,0,0,0,0,0,0
24881,2488,0,0,0,0,0,0,0,0,0,0
24891,2489,0,0,0,0,0,0,0,0,0,0
24901,2490,0,0,0,0,0,0,0,0,0,0
24911,2491,0,0,0,0,0,0,0,0,0,0
24921,2492,0,0,0,0,0,0,0,0,0,0
24931,2493,0,0,0,0,0,0,0,0,0,0
24941,2494,0,0,0,0,0,0,0,0,0,0
24951,2495,0,0,0,0,0,0,0,0,0,0
24961,2496,0,0,0,0,0,0,0,0,0,0
24971,2497,0,0,0,0,0,0,0,0,0,0
24981,2498,0,0,0,0,0,0,0,0,0,0
24991,2499,0,0,0,0,0,0,0,0,0,0
25001,2500,0,0,0,0,0,0,0,0,0,0
25011,2501,0,0,0,0,0,0,0,0,0,0
25021,2502,0,0,0,0,0,0,0,0,0,0
25031,2503,0,0,0,0,0,0,0,0,0,0
28001,2800,0,0,0,0,0,0,0,0,0,0
28011,2801,0,0,0,0,0,0,0,0,0,0
28021,2802,0,0,0,0,0,0,0,0,0,0
28031,2803,0,0,0,0,0,0,0,0,1,1
28041,2804,0,0,0,0,0,0,0,0,1,1
28051,2805,0,0,0,0,0,0,0,0,1,1
28061,2806,0,0,0,0,0,0,0,0,1,1
28071,2807,0,0,0,0,0,0,0,0,1,1
28081,2808,0,0,0,0,0,0,0,0,1,1
28091,2809,0,0,0,0,0,0,0,0,1,1
28101,2810,0,0,0,0,0,0,0,0,1,1
28111,2811,0,0,0,0,0,0,0,0,1,1
28121,2812,0,0,0,0,0,0,0,0,1,1
28131,2813,0,0,0,0,0,0,0,0,1,1
28141,2814,0,0,0,0,0,0,0,0,1,1
28151,2815,0,0,0,0,0,0,0,0,1,1
28161,2816,0,0,0,0,0,0,0,0,1,1
28171,2817,0,0,0,0,0,0,0,0,1,1
28181,2818,0,0,0,0,0,0,0,0,1,1
28191,2819,0,0,0,0,0,0,0,0,1,1
28201,2820,0,0,0,1,1,0,0,0,0,0
28211,2821,0,0,0,0,0,0,0,0,1,1
28221,2822,0,0,0,0,0,0,0,0,1,1
28231,2823,0,0,0,0,0,0,0,0,1,1
28241,2824,0,0,0,0,0,0,0,0,1,1
28251,2825,0,0,0,0,0,0,0,0,1,1
28261,2826,0,0,0,0,0,0,0,0,1,1
28271,2827,0,0,0,0,0,0,0,0,1,1
28281,2828,0,0,0,0,0,0,0,0,1,1
28291,2829,0,0,0,0,0,0,0,0,1,1
28301,2830,0,0,0,0,0,0,0,0,1,1
28311,2831,0,0,0,0,0,0,0,0,1,1
28321,2832,0,0,0,0,0,0,0,0,1,1
28331,2833,0,0,0,0,0,0,0,0,1,1
28341,2834,0,0,0,0,0,0,0,0,1,1
28351,2835,0,0,0,0,0,0,0,0,1,1

bucket number,IP1,IP2,IP5,IP8
1,1,8911,1,-
1501,1501,-,1501,28201
5001,5001,-,5001,-
7201,7201,-,7201,-
8821,8821,-,8821,-
8831,8831,-,8831,-
8841,8841,-,8841,-
8851,8851,-,8851,-
8861,8861,-,8861,-
8871,8871,-,8871,-
8881,8881,-,8881,-
8891,8891,-,8891,-
8901,8901,-,8901,-
8911,8911,-,8911,-
8921,8921,-,8921,-
8931,8931,-,8931,-

bucket number,IP1,IP2,IP5,IP8
1,1,-,1,-
1501,1501,-,1501,-
5001,5001,-,5001,-
7201,7201,-,7201,-
8821,8821,-,8821,-
8831,8831,-,8831,-
8841,8841,-,8841,-
8851,8851,-,8851,-
8861,8861,-,8861,-
8871,8871,-,8871,-
8881,8881,-,8881,-
8891,8891,-,8891,-
8901,8901,-,8901,-
8911,8911,1,8911,-
8921,8921,-,8921,-
8931,8931,-,8931,-
13361,-,-,-,-
13371,-,-,-,-
13381,-,-,-,-
13391,-,-,-,-
13401,-,-,-,-
13411,-,-,-,-
13421,-,-,-,-
13431,-,-,-,-
13441,-,-,-,-
13451,-,-,-,-
13461,-,-,-,-
13471,-,-,-,-
13481,-,-,-,-
13491,-,-,-,-
13501,-,-,-,-
13511,-,-,-,-
13521,-,-,-,-
13531,-,-,-,-
13541,-,-,-,-
13551,-,-,-,-
13561,-,-,-,-
13571,-,-,-,-
13581,-,-,-,-
13591,-,-,-,-
13601,-,-,-,-
13611,-,-,-,-
13621,-,-,-,-
13631,-,-,-,-
13641,-,-,-,-
13651,-,-,-,-
13661,-,-,-,-
13671,-,-,-,-
13681,-,-,-,-
13691,-,-,-,-
13701,-,-,-,-
13711,-,-,-,-
15361,-,-,-,-
15371,-,-,-,-
15381,-,-,-,-
15391,-,-,-,-
15401,-,-,-,-
15411,-,-,-,-
15421,-,-,-,-
15431,-,-,-,-
15441,-,-,-,-
15451,-,-,-,-
15461,-,-,-,-
15471,-,-,-,-
15481,-,-,-,-
15491,-,-,-,-
15501,-,-,-,-
15511,-,-,-,-
15521,-,-,-,-
15531,-,-,-,-
15541,-,-,-,-
15551,-,-,-,-
15561,-,-,-,-
15571,-,-,-,-
15581,-,-,-,-
15591,-,-,-,-
15601,-,-,-,-
15611,-,-,-,-
15621,-,-,-,-
15631,-,-,-,-
15641,-,-,-,-
15651,-,-,-,-
15661,-,-,-,-
15671,-,-,-,-
15681,-,-,-,-
15691,-,-,-,-
15701,-,-,-,-
15711,-,-,-,-
20001,-,-,-,-
20011,-,-,-,-
20021,-,-,-,-
20031,-,-,-,-
20041,-,-,-,-
20051,-,-,-,-
20061,-,-,-,-
20071,-,-,-,-
20081,-,-,-,-
20091,-,-,-,-
20101,-,-,-,-
20111,-,-,-,-
20121,-,-,-,-
20131,-,-,-,-
20141,-,-,-,-
20151,-,-,-,-
20161,-,-,-,-
20171,-,-,-,-
20181,-,-,-,-
20191,-,-,-,-
20201,-,-,-,-
20211,-,-,-,-
20221,-,-,-,-
20231,-,-,-,-
20241,-,-,-,-
20251,-,-,-,-
20261,-,-,-,-
20271,-,-,-,-
20281,-,-,-,-
20291,-,-,-,-
20301,-,-,-,-
20311,-,-,-,-
20321,-,-,-,-
20331,-,-,-,-
20341,-,-,-,-
20351,-,-,-,-
21561,-,-,-,-
21571,-,-,-,-
21581,-,-,-,-
21591,-,-,-,-
21601,-,-,-,-
21611,-,-,-,-
21621,-,-,-,-
21631,-,-,-,-
21641,-,-,-,-
21651,-,-,-,-
21661,-,-,-,-
21671,-,-,-,-
21681,-,-,-,-
21691,-,-,-,-
21701,-,-,-,-
21711,-,-,-,-
21721,-,-,-,-
21731,-,-,-,-
21741,-,-,-,-
21751,-,-,-,-
21761,-,-,-,-
21771,-,-,-,-
21781,-,-,-,-
21791,-,-,-,-
21801,-,-,-,-
21811,-,-,-,-
21821,-,-,-,-
21831,-,-,-,-
21841,-,-,-,-
21851,-,-,-,-
21861,-,-,-,-
21871,-,-,-,-
21881,-,-,-,-
21891,-,-,-,-
21901,-,-,-,-
21911,-,-,-,-
23121,-,-,-,-
23131,-,-,-,-
23141,-,-,-,-
23151,-,-,-,-
23161,-,-,-,-
23171,-,-,-,-
23181,-,-,-,-
23191,-,-,-,-
23201,-,-,-,-
23211,-,-,-,-
23221,-,-,-,-
23231,-,-,-,-
23241,-,-,-,-
23251,-,-,-,-
23261,-,-,-,-
23271,-,-,-,-
23281,-,-,-,-
23291,-,-,-,-
23301,-,-,-,-
23311,-,-,-,-
23321,-,-,-,-
23331,-,-,-,-
23341,-,-,-,-
23351,-,-,-,-
23361,-,-,-,-
23371,-,-,-,-
23381,-,-,-,-
23391,-,-,-,-
23401,-,-,-,-
23411,-,-,-,-
23421,-,-,-,-
23431,-,-,-,-
23441,-,-,-,-
23451,-,-,-,-
23461,-,-,-,-
23471,-,-,-,-
24681,-,-,-,-
24691,-,-,-,-
24701,-,-,-,-
24711,-,-,-,-
24721,-,-,-,-
24731,-,-,-,-
24741,-,-,-,-
24751,-,-,-,-
24761,-,-,-,-
24771,-,-,-,-
24781,-,-,-,-
24791,-,-,-,-
24801,-,-,-,-
24811,-,-,-,-
24821,-,-,-,-
24831,-,-,-,-
24841,-,-,-,-
24851,-,-,-,-
24861,-,-,-,-
24871,-,-,-,-
24881,-,-,-,-
24891,-,-,-,-
24901,-,-,-,-
24911,-,-,-,-
24921,-,-,-,-
24931,-,-,-,-
24941,-,-,-,-
24951,-,-,-,-
24961,-,-,-,-
24971,-,-,-,-
24981,-,-,-,-
24991,-,-,-,-
25001,-,-,-,-
25011,-,-,-,-
25021,-,-,-,-
25031,-,-,-,-
28001,-,-,-,-
28011,-,-,-,-
28021,-,-,-,-
28031,-,-,-,-
28041,-,-,-,-
28051,-,-,-,-
28061,-,-,-,-
28071,-,-,-,-
28081,-,-,-,-
28091,-,-,-,-
28101,-,-,-,-
28111,-,-,-,-
28121,-,-,-,-
28131,-,-,-,-
28141,-,-,-,-
28151,-,-,-,-
28161,-,-,-,-
28171,-,-,-,-
28181,-,-,-,-
28191,-,-,-,-
28201,-,-,-,1501
28211,-,-,-,-
28221,-,-,-,-
28231,-,-,-,-
28241,-,-,-,-
28251,-,-,-,-
28261,-,-,-,-
28271,-,-,-,-
28281,-,-,-,-
28291,-,-,-,-
28301,-,-,-,-
28311,-,-,-,-
28321,-,-,-,-
28331,-,-,-,-
28341,-,-,-,-
28351,-,-,-,-
